%!PS-Adobe-2.0 EPSF-2.0
%%BoundingBox:  0 0 567 610
%%Title: /data/nc_sens_files/overlain/EnergyDependence_ms90.eps: c1
%%Creator: ROOT Version 5.34/20
%%CreationDate: Tue Oct 21 11:55:29 2014
%%EndComments
%%BeginProlog
80 dict begin
/s {stroke} def /l {lineto} def /m {moveto} def /t {translate} def
/r {rotate} def /rl {roll}  def /R {repeat} def
/d {rlineto} def /rm {rmoveto} def /gr {grestore} def /f {eofill} def
/c {setrgbcolor} def /black {0 setgray} def /sd {setdash} def
/cl {closepath} def /sf {scalefont setfont} def /lw {setlinewidth} def
/box {m dup 0 exch d exch 0 d 0 exch neg d cl} def
/NC{systemdict begin initclip end}def/C{NC box clip newpath}def
/bl {box s} def /bf {box f} def /Y { 0 exch d} def /X { 0 d} def 
/K {{pop pop 0 moveto} exch kshow} bind def
/ita {/ang 15 def gsave [1 0 ang dup sin exch cos div 1 0 0] concat} def 
/mp {newpath /y exch def /x exch def} def
/side {[w .77 mul w .23 mul] .385 w mul sd w 0 l currentpoint t -144 r} def
/mr {mp x y w2 0 360 arc} def /m24 {mr s} def /m20 {mr f} def
/mb {mp x y w2 add m w2 neg 0 d 0 w neg d w 0 d 0 w d cl} def
/mt {mp x y w2 add m w2 neg w neg d w 0 d cl} def
/m21 {mb f} def /m25 {mb s} def /m22 {mt f} def /m26{mt s} def
/m23 {mp x y w2 sub m w2 w d w neg 0 d cl f} def
/m27 {mp x y w2 add m w3 neg w2 neg d w3 w2 neg d w3 w2 d cl s} def
/m28 {mp x w2 sub y w2 sub w3 add m w3 0 d  0 w3 neg d w3 0 d 0 w3 d w3 0 d  0 w3 d w3 neg 0 d 0 w3 d w3 neg 0 d 0 w3 neg d w3 neg 0 d cl s } def
/m29 {mp gsave x w2 sub y w2 add w3 sub m currentpoint t 4 {side} repeat cl fill gr} def
/m30 {mp gsave x w2 sub y w2 add w3 sub m currentpoint t 4 {side} repeat cl s gr} def
/m31 {mp x y w2 sub m 0 w d x w2 sub y m w 0 d x w2 sub y w2 add m w w neg d x w2 sub y w2 sub m w w d s} def
/m32 {mp x y w2 sub m w2 w d w neg 0 d cl s} def
/m33 {mp x y w2 add m w3 neg w2 neg d w3 w2 neg d w3 w2 d cl f} def
/m34 {mp x w2 sub y w2 sub w3 add m w3 0 d  0 w3 neg d w3 0 d 0 w3 d w3 0 d  0 w3 d w3 neg 0 d 0 w3 d w3 neg 0 d 0 w3 neg d w3 neg 0 d cl f } def
/m2 {mp x y w2 sub m 0 w d x w2 sub y m w 0 d s} def
/m5 {mp x w2 sub y w2 sub m w w d x w2 sub y w2 add m w w neg d s} def
/reEncode {exch findfont dup length dict begin {1 index /FID eq  {pop pop} {def} ifelse } forall /Encoding exch def currentdict end dup /FontName get exch definefont pop } def [/Times-Bold /Times-Italic /Times-BoldItalic /Helvetica /Helvetica-Oblique
 /Helvetica-Bold /Helvetica-BoldOblique /Courier /Courier-Oblique /Courier-Bold /Courier-BoldOblique /Times-Roman /AvantGarde-Book /AvantGarde-BookOblique /AvantGarde-Demi /AvantGarde-DemiOblique /Bookman-Demi /Bookman-DemiItalic /Bookman-Light
 /Bookman-LightItalic /Helvetica-Narrow /Helvetica-Narrow-Bold /Helvetica-Narrow-BoldOblique /Helvetica-Narrow-Oblique /NewCenturySchlbk-Roman /NewCenturySchlbk-Bold /NewCenturySchlbk-BoldItalic /NewCenturySchlbk-Italic /Palatino-Bold
 /Palatino-BoldItalic /Palatino-Italic /Palatino-Roman ] {ISOLatin1Encoding reEncode } forall
%%EndProlog
%%BeginSetup
%%EndSetup
newpath  gsave  .25 .25 scale  gsave  0 0 t black[  ] 0 sd 3 lw 1 1 1 c 2268 2438 0 0 bf black 1 1 1 c 1837 1975 317 341 bf black 1837 1975 317 341 bl 317 341 m 1837 X s[ 4 8] 0 sd 463 2316 m -1975 Y s 588 2316 m -1975 Y s 690 2316 m -1975 Y s 776
 2316 m -1975 Y s 851 2316 m -1975 Y s 917 2316 m -1975 Y s 976 2316 m -1975 Y s 1364 2316 m -1975 Y s 1591 2316 m -1975 Y s 1752 2316 m -1975 Y s 1876 2316 m -1975 Y s 1978 2316 m -1975 Y s 2065 2316 m -1975 Y s 2139 2316 m -1975 Y s[  ] 0 sd 317
 341 m 1975 Y s[ 4 8] 0 sd 2154 364 m -1837 X s 2154 852 m -1837 X s 2154 1340 m -1837 X s 2154 1828 m -1837 X s 2154 2316 m -1837 X s[  ] 0 sd 317 341 m 1837 X s
 gsave  2268 2438 0 0 C 2116.97 124.528 t 0 r /Times-Bold findfont 104.865 sf 0 0 m (\)) show NC gr 
 gsave  2268 2438 0 0 C 2025.22 78.6491 t 0 r /Times-Bold findfont 72.095 sf 0 0 m (ms) show NC gr 
 gsave  2268 2438 0 0 C 1966.23 124.528 t 0 r /Symbol findfont 104.865 sf 0 0 m (q) show NC gr 
 gsave  2268 2438 0 0 C 1881.03 124.528 t 0 r /Times-Bold findfont 104.865 sf 0 0 m (\(2) show NC gr 
 gsave  2268 2438 0 0 C 1841.7 170.406 t 0 r /Times-Bold findfont 72.095 sf 0 0 m (2) show NC gr 
 gsave  2268 2438 0 0 C 1710.62 124.528 t 0 r /Times-Bold findfont 104.865 sf 0 0 m (sin) show NC gr  463 371 m -30 Y s 588 371 m -30 Y s 690 371 m -30 Y s 776 371 m -30 Y s 851 371 m -30 Y s 917 371 m -30 Y s 976 401 m -60 Y s
 gsave  2268 2438 0 0 C 983.114 268.718 t 0 r /Helvetica findfont 52.4327 sf 0 0 m (\2551) show NC gr 
 gsave  2268 2438 0 0 C 904.465 235.947 t 0 r /Helvetica findfont 72.095 sf 0 0 m (10) show NC gr  1364 371 m -30 Y s 1591 371 m -30 Y s 1752 371 m -30 Y s 1876 371 m -30 Y s 1978 371 m -30 Y s 2065 371 m -30 Y s 2139 371 m -30 Y s 317 341 m 1975 Y s
 gsave  2268 2438 0 0 C 170.406 2287.38 t 90 r /Times-Bold findfont 104.865 sf 0 0 m (\)) show NC gr 
 gsave  2268 2438 0 0 C 124.528 2248.05 t 90 r /Times-Bold findfont 72.095 sf 0 0 m (2) show NC gr 
 gsave  2268 2438 0 0 C 170.406 2064.54 t 90 r /Times-Bold findfont 104.865 sf 0 0 m ( \(eV) show NC gr 
 gsave  2268 2438 0 0 C 124.528 2025.21 t 90 r /Times-Bold findfont 72.095 sf 0 0 m (2) show NC gr 
 gsave  2268 2438 0 0 C 170.406 1933.46 t 90 r /Times-Bold findfont 104.865 sf 0 0 m (m) show NC gr 
 gsave  2268 2438 0 0 C 170.406 1867.92 t 90 r /Symbol findfont 104.865 sf 0 0 m (D) show NC gr  345 341 m -28 X s 373 364 m -56 X s
 gsave  2268 2438 0 0 C 249.056 360.475 t 0 r /Helvetica findfont 52.4327 sf 0 0 m (\2552) show NC gr 
 gsave  2268 2438 0 0 C 170.406 334.259 t 0 r /Helvetica findfont 72.095 sf 0 0 m (10) show NC gr  345 511 m -28 X s 345 596 m -28 X s 345 657 m -28 X s 345 705 m -28 X s 345 743 m -28 X s 345 776 m -28 X s 345 804 m -28 X s 345 829 m -28 X s 373 852
 m -56 X s
 gsave  2268 2438 0 0 C 249.056 845.478 t 0 r /Helvetica findfont 52.4327 sf 0 0 m (\2551) show NC gr 
 gsave  2268 2438 0 0 C 170.406 819.262 t 0 r /Helvetica findfont 72.095 sf 0 0 m (10) show NC gr  345 999 m -28 X s 345 1084 m -28 X s 345 1145 m -28 X s 345 1193 m -28 X s 345 1231 m -28 X s 345 1264 m -28 X s 345 1292 m -28 X s 345 1317 m -28 X s
 373 1340 m -56 X s
 gsave  2268 2438 0 0 C 299.792 1308.14 t 0 r  -41 0 t /Helvetica findfont 72.095 sf 0 0 m (1) show NC gr  345 1486 m -28 X s 345 1572 m -28 X s 345 1633 m -28 X s 345 1681 m -28 X s 345 1719 m -28 X s 345 1752 m -28 X s 345 1780 m -28 X s 345 1805 m
 -28 X s 373 1828 m -56 X s
 gsave  2268 2438 0 0 C 299.792 1796.11 t 0 r  -82 0 t /Helvetica findfont 72.095 sf 0 0 m (10) show NC gr  345 1974 m -28 X s 345 2060 m -28 X s 345 2121 m -28 X s 345 2169 m -28 X s 345 2207 m -28 X s 345 2240 m -28 X s 345 2268 m -28 X s 345 2293
 m -28 X s 373 2316 m -56 X s
 gsave  2268 2438 0 0 C 262.164 2313.6 t 0 r /Helvetica findfont 52.4327 sf 0 0 m (2) show NC gr 
 gsave  2268 2438 0 0 C 183.515 2287.38 t 0 r /Helvetica findfont 72.095 sf 0 0 m (10) show NC gr  6 lw 2103 364 m 722 Y -26 19 d -101 20 d -100 19 d -99 20 d -100 19 d -97 20 d -97 19 d -95 20 d -95 20 d -93 19 d -93 20 d -86 19 d -82 20 d -85 19 d
 -77 20 d -73 19 d -76 20 d -65 19 d -51 20 d -54 19 d -38 20 d -19 19 d -11 20 d -14 19 d 25 20 d 19 Y 57 20 d 54 19 d 100 20 d 97 19 d 158 20 d 205 19 d 256 20 d 328 19 d 289 20 d -57 20 d -161 19 d -140 20 d -144 19 d -155 20 d -139 19 d -90 20 d
 -51 19 d 20 Y 56 19 d 97 20 d 138 19 d 193 20 d 180 19 d 173 20 d 46 19 d -4 20 d -17 19 d 14 20 d 12 19 d -9 20 d -15 19 d -2 20 d 8 19 d -10 20 d 21 20 d 6 19 d s 1 0 0 c black 1 0 0 c 2103 364 m 741 Y -10 20 d -101 19 d -100 20 d -100 19 d -100
 20 d -99 19 d -99 20 d -95 20 d -96 19 d -92 20 d -94 19 d -90 20 d -87 19 d -84 20 d -83 19 d -72 20 d -89 19 d -49 20 d -70 19 d -54 20 d -38 19 d -60 20 d 19 Y -24 7 d s 317 1606 m 24 7 d s 341 1613 m 19 Y 60 20 d 57 19 d 105 20 d 141 19 d 125 20
 d 146 19 d 157 20 d 136 20 d 97 19 d 66 20 d 115 19 d 217 20 d -15 19 d -335 20 d -234 19 d -118 20 d -34 19 d 23 20 d 73 19 d 101 20 d 116 19 d 156 20 d 180 19 d 82 20 d 52 19 d -22 20 d -51 19 d -31 20 d -34 19 d 9 20 d 68 19 d 31 20 d 83 20 d 32
 19 d s 0 1 0 c black 0 1 0 c 2103 364 m 761 Y -19 19 d -101 20 d -101 19 d -100 20 d -99 19 d -100 20 d -98 20 d -97 19 d -96 20 d -100 19 d -89 20 d -95 19 d -94 20 d -85 19 d -82 20 d -88 19 d -87 20 d -60 19 d -54 20 d -57 19 d -60 20 d -24 7 d s
 317 1703 m 24 7 d s 341 1710 m 60 20 d 57 19 d 54 20 d 51 20 d 49 19 d 39 Y 92 20 d 125 19 d 253 20 d 506 19 d 106 20 d -405 19 d -169 20 d -48 19 d 20 Y 31 19 d 83 20 d 106 19 d 38 20 d 2 19 d -90 20 d -81 19 d -34 20 d -31 19 d 30 20 d 138 19 d
 137 20 d 196 20 d 180 19 d s black
 gsave  2268 2438 0 0 C 471.895 2162.85 t 0 r /Helvetica findfont 104.865 sf 0 0 m (EnergyDependence 90 CL) show NC gr 
 gsave  2268 2438 0 0 C 727.504 2084.2 t 0 r /Helvetica findfont 72.095 sf 0 0 m (0) show NC gr 
 gsave  2268 2438 0 0 C 537.436 2025.21 t 0 r /Helvetica findfont 104.865 sf 0 0 m ( ~ E) show NC gr 
 gsave  2268 2438 0 0 C 471.895 2025.21 t 0 r /Symbol findfont 104.865 sf 0 0 m (s) show NC gr  1 0 0 c black 1 0 0 c
 gsave  2268 2438 0 0 C 537.436 1913.8 t 0 r /Helvetica findfont 104.865 sf 0 0 m ( ~ E) show NC gr  black 1 0 0 c
 gsave  2268 2438 0 0 C 471.895 1913.8 t 0 r /Symbol findfont 104.865 sf 0 0 m (s) show NC gr  black 0 1 0 c black 0 1 0 c
 gsave  2268 2438 0 0 C 727.504 1828.59 t 0 r /Helvetica findfont 72.095 sf 0 0 m (2) show NC gr  black 0 1 0 c
 gsave  2268 2438 0 0 C 537.436 1776.16 t 0 r /Helvetica findfont 104.865 sf 0 0 m ( ~ E) show NC gr  black 0 1 0 c
 gsave  2268 2438 0 0 C 471.895 1776.16 t 0 r /Symbol findfont 104.865 sf 0 0 m (s) show NC gr 
 gr  gr showpage
end
%%EOF
