%!PS-Adobe-2.0 EPSF-2.0
%%BoundingBox:  0 0 567 613
%%Title: /home/augustus/mphys/work/root/overlain/Fracsys_ss90.eps: c1
%%Creator: ROOT Version 5.34/21
%%CreationDate: Mon Oct 13 13:35:08 2014
%%EndComments
%%BeginProlog
80 dict begin
/s {stroke} def /l {lineto} def /m {moveto} def /t {translate} def
/r {rotate} def /rl {roll}  def /R {repeat} def
/d {rlineto} def /rm {rmoveto} def /gr {grestore} def /f {eofill} def
/c {setrgbcolor} def /black {0 setgray} def /sd {setdash} def
/cl {closepath} def /sf {scalefont setfont} def /lw {setlinewidth} def
/box {m dup 0 exch d exch 0 d 0 exch neg d cl} def
/NC{systemdict begin initclip end}def/C{NC box clip newpath}def
/bl {box s} def /bf {box f} def /Y { 0 exch d} def /X { 0 d} def 
/K {{pop pop 0 moveto} exch kshow} bind def
/ita {/ang 15 def gsave [1 0 ang dup sin exch cos div 1 0 0] concat} def 
/mp {newpath /y exch def /x exch def} def
/side {[w .77 mul w .23 mul] .385 w mul sd w 0 l currentpoint t -144 r} def
/mr {mp x y w2 0 360 arc} def /m24 {mr s} def /m20 {mr f} def
/mb {mp x y w2 add m w2 neg 0 d 0 w neg d w 0 d 0 w d cl} def
/mt {mp x y w2 add m w2 neg w neg d w 0 d cl} def
/m21 {mb f} def /m25 {mb s} def /m22 {mt f} def /m26{mt s} def
/m23 {mp x y w2 sub m w2 w d w neg 0 d cl f} def
/m27 {mp x y w2 add m w3 neg w2 neg d w3 w2 neg d w3 w2 d cl s} def
/m28 {mp x w2 sub y w2 sub w3 add m w3 0 d  0 w3 neg d w3 0 d 0 w3 d w3 0 d  0 w3 d w3 neg 0 d 0 w3 d w3 neg 0 d 0 w3 neg d w3 neg 0 d cl s } def
/m29 {mp gsave x w2 sub y w2 add w3 sub m currentpoint t 4 {side} repeat cl fill gr} def
/m30 {mp gsave x w2 sub y w2 add w3 sub m currentpoint t 4 {side} repeat cl s gr} def
/m31 {mp x y w2 sub m 0 w d x w2 sub y m w 0 d x w2 sub y w2 add m w w neg d x w2 sub y w2 sub m w w d s} def
/m32 {mp x y w2 sub m w2 w d w neg 0 d cl s} def
/m33 {mp x y w2 add m w3 neg w2 neg d w3 w2 neg d w3 w2 d cl f} def
/m34 {mp x w2 sub y w2 sub w3 add m w3 0 d  0 w3 neg d w3 0 d 0 w3 d w3 0 d  0 w3 d w3 neg 0 d 0 w3 d w3 neg 0 d 0 w3 neg d w3 neg 0 d cl f } def
/m2 {mp x y w2 sub m 0 w d x w2 sub y m w 0 d s} def
/m5 {mp x w2 sub y w2 sub m w w d x w2 sub y w2 add m w w neg d s} def
/reEncode {exch findfont dup length dict begin {1 index /FID eq  {pop pop} {def} ifelse } forall /Encoding exch def currentdict end dup /FontName get exch definefont pop } def [/Times-Bold /Times-Italic /Times-BoldItalic /Helvetica /Helvetica-Oblique
 /Helvetica-Bold /Helvetica-BoldOblique /Courier /Courier-Oblique /Courier-Bold /Courier-BoldOblique /Times-Roman /AvantGarde-Book /AvantGarde-BookOblique /AvantGarde-Demi /AvantGarde-DemiOblique /Bookman-Demi /Bookman-DemiItalic /Bookman-Light
 /Bookman-LightItalic /Helvetica-Narrow /Helvetica-Narrow-Bold /Helvetica-Narrow-BoldOblique /Helvetica-Narrow-Oblique /NewCenturySchlbk-Roman /NewCenturySchlbk-Bold /NewCenturySchlbk-BoldItalic /NewCenturySchlbk-Italic /Palatino-Bold
 /Palatino-BoldItalic /Palatino-Italic /Palatino-Roman ] {ISOLatin1Encoding reEncode } forall
%%EndProlog
%%BeginSetup
%%EndSetup
newpath  gsave  .25 .25 scale  gsave  0 0 t black[  ] 0 sd 3 lw 1 1 1 c 2268 2451 0 0 bf black 1 1 1 c 1837 1986 317 343 bf black 1837 1986 317 343 bl 317 343 m 1837 X s[ 4 8] 0 sd 721 2329 m -1986 Y s 1407 2329 m -1986 Y s 2022 2329 m -1986 Y s[  ]
 0 sd 317 343 m 1986 Y s[ 4 8] 0 sd 2154 366 m -1837 X s 2154 856 m -1837 X s 2154 1347 m -1837 X s 2154 1837 m -1837 X s 2154 2328 m -1837 X s[  ] 0 sd 317 343 m 1837 X s
 gsave  2268 2451 0 0 C 2116.97 117.974 t 0 r /Times-Bold findfont 104.865 sf 0 0 m (\)) show NC gr 
 gsave  2268 2451 0 0 C 2057.99 85.2032 t 0 r /Times-Bold findfont 72.095 sf 0 0 m (ss) show NC gr 
 gsave  2268 2451 0 0 C 2005.55 117.974 t 0 r /Symbol findfont 104.865 sf 0 0 m (q) show NC gr 
 gsave  2268 2451 0 0 C 1920.35 117.974 t 0 r /Times-Bold findfont 104.865 sf 0 0 m (\(2) show NC gr 
 gsave  2268 2451 0 0 C 1881.03 163.852 t 0 r /Times-Bold findfont 72.095 sf 0 0 m (2) show NC gr 
 gsave  2268 2451 0 0 C 1749.94 117.974 t 0 r /Times-Bold findfont 104.865 sf 0 0 m (sin) show NC gr  721 373 m -30 Y s 1407 373 m -30 Y s 2022 403 m -60 Y s
 gsave  2268 2451 0 0 C 2021.53 232.254 t 0 r  -20 0 t /Helvetica findfont 72.095 sf 0 0 m (1) show NC gr  317 343 m 1986 Y s
 gsave  2268 2451 0 0 C 176.961 2300.49 t 90 r /Times-Bold findfont 104.865 sf 0 0 m (\)) show NC gr 
 gsave  2268 2451 0 0 C 124.528 2267.72 t 90 r /Times-Bold findfont 72.095 sf 0 0 m (2) show NC gr 
 gsave  2268 2451 0 0 C 176.961 2077.65 t 90 r /Times-Bold findfont 104.865 sf 0 0 m ( \(eV) show NC gr 
 gsave  2268 2451 0 0 C 124.528 2044.88 t 90 r /Times-Bold findfont 72.095 sf 0 0 m (2) show NC gr 
 gsave  2268 2451 0 0 C 176.961 1946.57 t 90 r /Times-Bold findfont 104.865 sf 0 0 m (m) show NC gr 
 gsave  2268 2451 0 0 C 176.961 1881.03 t 90 r /Symbol findfont 104.865 sf 0 0 m (D) show NC gr  345 343 m -28 X s 373 366 m -56 X s
 gsave  2268 2451 0 0 C 249.056 360.475 t 0 r /Helvetica findfont 52.4327 sf 0 0 m (\2552) show NC gr 
 gsave  2268 2451 0 0 C 170.406 334.259 t 0 r /Helvetica findfont 72.095 sf 0 0 m (10) show NC gr  345 513 m -28 X s 345 600 m -28 X s 345 661 m -28 X s 345 709 m -28 X s 345 747 m -28 X s 345 780 m -28 X s 345 809 m -28 X s 345 834 m -28 X s 373 856
 m -56 X s
 gsave  2268 2451 0 0 C 255.61 852.032 t 0 r /Helvetica findfont 52.4327 sf 0 0 m (\2551) show NC gr 
 gsave  2268 2451 0 0 C 176.961 825.816 t 0 r /Helvetica findfont 72.095 sf 0 0 m (10) show NC gr  345 1004 m -28 X s 345 1090 m -28 X s 345 1152 m -28 X s 345 1199 m -28 X s 345 1238 m -28 X s 345 1271 m -28 X s 345 1299 m -28 X s 345 1324 m -28 X s
 373 1347 m -56 X s
 gsave  2268 2451 0 0 C 299.792 1315.35 t 0 r  -40 0 t /Helvetica findfont 72.095 sf 0 0 m (1) show NC gr  345 1494 m -28 X s 345 1581 m -28 X s 345 1642 m -28 X s 345 1690 m -28 X s 345 1729 m -28 X s 345 1761 m -28 X s 345 1790 m -28 X s 345 1815 m
 -28 X s 373 1837 m -56 X s
 gsave  2268 2451 0 0 C 299.792 1805.94 t 0 r  -82 0 t /Helvetica findfont 72.095 sf 0 0 m (10) show NC gr  345 1985 m -28 X s 345 2071 m -28 X s 345 2133 m -28 X s 345 2180 m -28 X s 345 2219 m -28 X s 345 2252 m -28 X s 345 2280 m -28 X s 345 2306
 m -28 X s 373 2328 m -56 X s
 gsave  2268 2451 0 0 C 262.164 2326.7 t 0 r /Helvetica findfont 52.4327 sf 0 0 m (2) show NC gr 
 gsave  2268 2451 0 0 C 183.515 2300.49 t 0 r /Helvetica findfont 72.095 sf 0 0 m (10) show NC gr  6 lw 2022 366 m 765 Y -1 20 d -113 19 d -172 20 d -175 19 d -144 20 d -152 20 d -127 19 d -126 20 d -98 20 d -71 19 d -68 20 d -65 19 d -41 20 d -39 20
 d -37 19 d -35 20 d -17 20 d -16 19 d -15 20 d -15 19 d 79 Y 15 20 d 15 19 d 33 20 d 53 19 d 99 20 d 133 20 d 295 19 d 617 20 d 267 20 d 39 Y -210 19 d -322 20 d -301 20 d -177 19 d -122 20 d -47 20 d 19 Y 71 20 d 98 19 d 177 20 d 349 20 d 440 19 d
 44 20 d 235 Y s 1 0 0 c black 1 0 0 c 2022 366 m 765 Y -1 20 d -113 19 d -172 20 d -175 19 d -144 20 d -152 20 d -127 19 d -126 20 d -98 20 d -71 19 d -68 20 d -65 19 d -41 20 d -39 20 d -37 19 d -35 20 d -17 20 d -16 19 d -15 20 d -15 19 d 79 Y 15
 20 d 15 19 d 33 20 d 53 19 d 99 20 d 133 20 d 295 19 d 617 20 d 267 20 d 39 Y -228 19 d -328 20 d -277 20 d -202 19 d -97 20 d -47 20 d 19 Y 47 20 d 122 19 d 177 20 d 325 20 d 455 19 d 53 20 d 235 Y s 0 1 0 c black 0 1 0 c 2022 366 m 765 Y -1 20 d
 -113 19 d -172 20 d -175 19 d -144 20 d -152 20 d -127 19 d -126 20 d -98 20 d -71 19 d -68 20 d -65 19 d -41 20 d -39 20 d -37 19 d -35 20 d -17 20 d -16 19 d -15 20 d -15 19 d 79 Y 15 20 d 15 19 d 33 20 d 53 19 d 99 20 d 133 20 d 295 19 d 617 20 d
 267 20 d 39 Y -247 19 d -309 20 d -277 20 d -202 19 d -97 20 d -47 20 d 19 Y 47 20 d 122 19 d 177 20 d 325 20 d 433 19 d 75 20 d 235 Y s 0 0 1 c black 0 0 1 c 2022 366 m 765 Y -1 20 d -113 19 d -172 20 d -175 19 d -144 20 d -152 20 d -127 19 d -126
 20 d -98 20 d -71 19 d -68 20 d -65 19 d -41 20 d -39 20 d -37 19 d -35 20 d -17 20 d -16 19 d -15 20 d -15 19 d 79 Y 15 20 d 15 19 d 33 20 d 53 19 d 99 20 d 133 20 d 295 19 d 598 20 d 286 20 d 19 Y -3 20 d -264 19 d -314 20 d -252 20 d -202 19 d
 -97 20 d -47 20 d 19 Y 47 20 d 97 19 d 202 20 d 301 20 d 432 19 d 100 20 d 235 Y s 1 1 0 c black 1 1 0 c 2022 366 m 765 Y -1 20 d -113 19 d -172 20 d -175 19 d -144 20 d -152 20 d -127 19 d -126 20 d -98 20 d -71 19 d -68 20 d -65 19 d -41 20 d -39
 20 d -37 19 d -35 20 d -17 20 d -16 19 d -15 20 d -15 19 d 79 Y 15 20 d 15 19 d 33 20 d 53 19 d 99 20 d 133 20 d 295 19 d 577 20 d 307 20 d 19 Y -20 20 d -266 19 d -295 20 d -278 20 d -176 19 d -97 20 d -47 20 d 19 Y 47 20 d 97 19 d 176 20 d 327 20
 d 389 19 d 143 20 d 235 Y s 1 0 1 c black 1 0 1 c 2022 366 m 765 Y -1 20 d -113 19 d -172 20 d -175 19 d -144 20 d -152 20 d -127 19 d -126 20 d -98 20 d -71 19 d -68 20 d -65 19 d -41 20 d -39 20 d -37 19 d -35 20 d -17 20 d -16 19 d -15 20 d -15
 19 d 79 Y 15 20 d 15 19 d 33 20 d 53 19 d 99 20 d 133 20 d 295 19 d 557 20 d 327 20 d 19 Y -75 20 d -274 19 d -281 20 d -229 20 d -176 19 d -97 20 d -47 20 d 19 Y 47 20 d 97 19 d 176 20 d 278 20 d 371 19 d 210 20 d 235 Y s 0 1 1 c black 0 1 1 c 2022
 366 m 765 Y -1 20 d -113 19 d -172 20 d -175 19 d -144 20 d -152 20 d -127 19 d -126 20 d -98 20 d -71 19 d -68 20 d -65 19 d -41 20 d -39 20 d -37 19 d -35 20 d -17 20 d -16 19 d -15 20 d -15 19 d 79 Y 15 20 d 15 19 d 33 20 d 53 19 d 99 20 d 133 20
 d 270 19 d 539 20 d 370 20 d 19 Y -192 20 d -246 19 d -242 20 d -204 20 d -175 19 d -73 20 d -70 20 d 23 19 d 47 20 d 73 19 d 175 20 d 254 20 d 323 19 d 280 20 d 27 20 d 19 Y -3 20 d 3 19 d 40 Y -3 19 d 20 Y 2 19 d -2 20 d 3 20 d 19 Y s 0.35 0.83
 0.33 c black 0.35 0.83 0.33 c 2022 366 m 765 Y -1 20 d -113 19 d -172 20 d -175 19 d -144 20 d -152 20 d -127 19 d -126 20 d -98 20 d -71 19 d -68 20 d -65 19 d -41 20 d -39 20 d -37 19 d -35 20 d -17 20 d -16 19 d -15 20 d -15 19 d 79 Y 15 20 d 15
 19 d 33 20 d 53 19 d 99 20 d 133 20 d 270 19 d 448 20 d 374 20 d -72 19 d -211 20 d -186 19 d -201 20 d -178 20 d -149 19 d -72 20 d -46 20 d 19 Y 46 20 d 72 19 d 149 20 d 204 20 d 247 19 d 237 20 d 55 20 d 17 19 d -17 20 d 19 Y 17 20 d -17 20 d -18
 19 d 59 Y 18 20 d 19 Y s 0.35 0.33 0.85 c black 0.35 0.33 0.85 c 2022 366 m 765 Y -1 20 d -113 19 d -172 20 d -175 19 d -144 20 d -152 20 d -127 19 d -126 20 d -98 20 d -71 19 d -68 20 d -65 19 d -41 20 d -39 20 d -37 19 d -35 20 d -17 20 d -16 19 d
 -15 20 d -15 19 d 79 Y 15 20 d 15 19 d 33 20 d 53 19 d 78 20 d 154 20 d 219 19 d 330 20 d 169 20 d -71 19 d -148 20 d -128 19 d -101 20 d -126 20 d -97 19 d -70 20 d -45 20 d 19 Y 45 20 d 70 19 d 97 20 d 151 20 d 127 19 d 127 20 d 49 20 d 78 Y -24
 20 d 78 Y 24 20 d 19 Y s 0.67 0.65 0.75 c black 0.67 0.65 0.75 c 2022 366 m 765 Y -1 20 d -113 19 d -172 20 d -175 19 d -169 20 d -127 20 d -127 19 d -126 20 d -98 20 d -71 19 d -68 20 d -65 19 d -41 20 d -39 20 d -37 19 d -35 20 d -17 20 d -16 19 d
 -15 20 d -15 19 d 79 Y 15 20 d 15 19 d 33 20 d 53 19 d 78 20 d 108 20 d 117 19 d 98 20 d 20 Y -49 19 d -49 20 d -71 19 d -46 20 d -44 20 d -43 19 d -21 20 d -20 20 d 19 Y 20 20 d 42 19 d 44 20 d 45 20 d 46 19 d 48 20 d 20 Y 24 19 d 59 Y -24 20 d 98
 Y 24 19 d s black
 gsave  2268 2451 0 0 C 471.895 2175.96 t 0 r /Helvetica findfont 104.865 sf 0 0 m (Fracsys 90 CL) show NC gr 
 gsave  2268 2451 0 0 C 471.895 2044.88 t 0 r /Helvetica findfont 104.865 sf 0 0 m (0.50) show NC gr  1 0 0 c black 1 0 0 c
 gsave  2268 2451 0 0 C 471.895 1926.9 t 0 r /Helvetica findfont 104.865 sf 0 0 m (0.45) show NC gr  black 0 1 0 c black 0 1 0 c
 gsave  2268 2451 0 0 C 471.895 1802.38 t 0 r /Helvetica findfont 104.865 sf 0 0 m (0.40) show NC gr  black 0 0 1 c black 0 0 1 c
 gsave  2268 2451 0 0 C 471.895 1677.85 t 0 r /Helvetica findfont 104.865 sf 0 0 m (0.35) show NC gr  black 1 1 0 c black 1 1 0 c
 gsave  2268 2451 0 0 C 471.895 1559.87 t 0 r /Helvetica findfont 104.865 sf 0 0 m (0.30) show NC gr  black 1 0 1 c black 1 0 1 c
 gsave  2268 2451 0 0 C 471.895 1435.35 t 0 r /Helvetica findfont 104.865 sf 0 0 m (0.25) show NC gr  black 0 1 1 c black 0 1 1 c
 gsave  2268 2451 0 0 C 471.895 1310.82 t 0 r /Helvetica findfont 104.865 sf 0 0 m (0.20) show NC gr  black 0.35 0.83 0.33 c black 0.35 0.83 0.33 c
 gsave  2268 2451 0 0 C 471.895 1186.29 t 0 r /Helvetica findfont 104.865 sf 0 0 m (0.15) show NC gr  black 0.35 0.33 0.85 c black 0.35 0.33 0.85 c
 gsave  2268 2451 0 0 C 471.895 1068.32 t 0 r /Helvetica findfont 104.865 sf 0 0 m (0.10) show NC gr  black 0.67 0.65 0.75 c black 0.67 0.65 0.75 c
 gsave  2268 2451 0 0 C 471.895 943.79 t 0 r /Helvetica findfont 104.865 sf 0 0 m (0.05) show NC gr 
 gr  gr showpage
end
%%EOF
