%!PS-Adobe-2.0 EPSF-2.0
%%BoundingBox:  0 0 567 610
%%Title: /data/nc_sens_files/ms5s_sinvsEU_overlay_near.eps: c1
%%Creator: ROOT Version 5.34/20
%%CreationDate: Tue Oct 14 18:23:33 2014
%%EndComments
%%BeginProlog
80 dict begin
/s {stroke} def /l {lineto} def /m {moveto} def /t {translate} def
/r {rotate} def /rl {roll}  def /R {repeat} def
/d {rlineto} def /rm {rmoveto} def /gr {grestore} def /f {eofill} def
/c {setrgbcolor} def /black {0 setgray} def /sd {setdash} def
/cl {closepath} def /sf {scalefont setfont} def /lw {setlinewidth} def
/box {m dup 0 exch d exch 0 d 0 exch neg d cl} def
/NC{systemdict begin initclip end}def/C{NC box clip newpath}def
/bl {box s} def /bf {box f} def /Y { 0 exch d} def /X { 0 d} def 
/K {{pop pop 0 moveto} exch kshow} bind def
/ita {/ang 15 def gsave [1 0 ang dup sin exch cos div 1 0 0] concat} def 
/mp {newpath /y exch def /x exch def} def
/side {[w .77 mul w .23 mul] .385 w mul sd w 0 l currentpoint t -144 r} def
/mr {mp x y w2 0 360 arc} def /m24 {mr s} def /m20 {mr f} def
/mb {mp x y w2 add m w2 neg 0 d 0 w neg d w 0 d 0 w d cl} def
/mt {mp x y w2 add m w2 neg w neg d w 0 d cl} def
/m21 {mb f} def /m25 {mb s} def /m22 {mt f} def /m26{mt s} def
/m23 {mp x y w2 sub m w2 w d w neg 0 d cl f} def
/m27 {mp x y w2 add m w3 neg w2 neg d w3 w2 neg d w3 w2 d cl s} def
/m28 {mp x w2 sub y w2 sub w3 add m w3 0 d  0 w3 neg d w3 0 d 0 w3 d w3 0 d  0 w3 d w3 neg 0 d 0 w3 d w3 neg 0 d 0 w3 neg d w3 neg 0 d cl s } def
/m29 {mp gsave x w2 sub y w2 add w3 sub m currentpoint t 4 {side} repeat cl fill gr} def
/m30 {mp gsave x w2 sub y w2 add w3 sub m currentpoint t 4 {side} repeat cl s gr} def
/m31 {mp x y w2 sub m 0 w d x w2 sub y m w 0 d x w2 sub y w2 add m w w neg d x w2 sub y w2 sub m w w d s} def
/m32 {mp x y w2 sub m w2 w d w neg 0 d cl s} def
/m33 {mp x y w2 add m w3 neg w2 neg d w3 w2 neg d w3 w2 d cl f} def
/m34 {mp x w2 sub y w2 sub w3 add m w3 0 d  0 w3 neg d w3 0 d 0 w3 d w3 0 d  0 w3 d w3 neg 0 d 0 w3 d w3 neg 0 d 0 w3 neg d w3 neg 0 d cl f } def
/m2 {mp x y w2 sub m 0 w d x w2 sub y m w 0 d s} def
/m5 {mp x w2 sub y w2 sub m w w d x w2 sub y w2 add m w w neg d s} def
/reEncode {exch findfont dup length dict begin {1 index /FID eq  {pop pop} {def} ifelse } forall /Encoding exch def currentdict end dup /FontName get exch definefont pop } def [/Times-Bold /Times-Italic /Times-BoldItalic /Helvetica /Helvetica-Oblique
 /Helvetica-Bold /Helvetica-BoldOblique /Courier /Courier-Oblique /Courier-Bold /Courier-BoldOblique /Times-Roman /AvantGarde-Book /AvantGarde-BookOblique /AvantGarde-Demi /AvantGarde-DemiOblique /Bookman-Demi /Bookman-DemiItalic /Bookman-Light
 /Bookman-LightItalic /Helvetica-Narrow /Helvetica-Narrow-Bold /Helvetica-Narrow-BoldOblique /Helvetica-Narrow-Oblique /NewCenturySchlbk-Roman /NewCenturySchlbk-Bold /NewCenturySchlbk-BoldItalic /NewCenturySchlbk-Italic /Palatino-Bold
 /Palatino-BoldItalic /Palatino-Italic /Palatino-Roman ] {ISOLatin1Encoding reEncode } forall
%%EndProlog
%%BeginSetup
%%EndSetup
newpath  gsave  .25 .25 scale  gsave  0 0 t black[  ] 0 sd 3 lw 1 1 1 c 2268 2438 0 0 bf black 1 1 1 c 1837 1975 317 341 bf black 1837 1975 317 341 bl 317 341 m 1837 X s[ 4 8] 0 sd 317 2316 m -1975 Y s 562 2316 m -1975 Y s 807 2316 m -1975 Y s 1052
 2316 m -1975 Y s 1297 2316 m -1975 Y s 1542 2316 m -1975 Y s 1787 2316 m -1975 Y s 2032 2316 m -1975 Y s 2032 2316 m -1975 Y s[  ] 0 sd 317 341 m 1975 Y s[ 4 8] 0 sd 2154 341 m -1837 X s 2154 694 m -1837 X s 2154 1047 m -1837 X s 2154 1399 m -1837 X
 s 2154 1752 m -1837 X s 2154 2105 m -1837 X s 2154 2105 m -1837 X s[  ] 0 sd 317 341 m 1837 X s
 gsave  2268 2438 0 0 C 1042.1 117.974 t 0 r /Times-Bold findfont 104.865 sf 0 0 m (Event Uncertainty \(1/64\)) show NC gr  317 401 m -60 Y s 379 371 m -30 Y s 440 371 m -30 Y s 501 371 m -30 Y s 562 401 m -60 Y s 624 371 m -30 Y s 685 371 m -30 Y s
 746 371 m -30 Y s 807 401 m -60 Y s 869 371 m -30 Y s 930 371 m -30 Y s 991 371 m -30 Y s 1052 401 m -60 Y s 1113 371 m -30 Y s 1175 371 m -30 Y s 1236 371 m -30 Y s 1297 401 m -60 Y s 1358 371 m -30 Y s 1420 371 m -30 Y s 1481 371 m -30 Y s 1542
 401 m -60 Y s 1603 371 m -30 Y s 1665 371 m -30 Y s 1726 371 m -30 Y s 1787 401 m -60 Y s 1848 371 m -30 Y s 1909 371 m -30 Y s 1971 371 m -30 Y s 2032 401 m -60 Y s 2032 401 m -60 Y s 2093 371 m -30 Y s
 gsave  2268 2438 0 0 C 294.934 262.164 t 0 r /Helvetica findfont 72.095 sf 0 0 m (0) show NC gr 
 gsave  2268 2438 0 0 C 504.665 262.164 t 0 r /Helvetica findfont 72.095 sf 0 0 m (0.2) show NC gr 
 gsave  2268 2438 0 0 C 753.721 262.164 t 0 r /Helvetica findfont 72.095 sf 0 0 m (0.4) show NC gr 
 gsave  2268 2438 0 0 C 996.222 262.164 t 0 r /Helvetica findfont 72.095 sf 0 0 m (0.6) show NC gr 
 gsave  2268 2438 0 0 C 1238.72 262.164 t 0 r /Helvetica findfont 72.095 sf 0 0 m (0.8) show NC gr 
 gsave  2268 2438 0 0 C 1520.55 262.164 t 0 r /Helvetica findfont 72.095 sf 0 0 m (1) show NC gr 
 gsave  2268 2438 0 0 C 1730.28 262.164 t 0 r /Helvetica findfont 72.095 sf 0 0 m (1.2) show NC gr 
 gsave  2268 2438 0 0 C 1979.34 262.164 t 0 r /Helvetica findfont 72.095 sf 0 0 m (1.4) show NC gr  317 341 m 1975 Y s
 gsave  2268 2438 0 0 C 170.406 2287.38 t 90 r /Times-Bold findfont 104.865 sf 0 0 m (\)) show NC gr 
 gsave  2268 2438 0 0 C 170.406 2228.39 t 90 r /Symbol findfont 104.865 sf 0 0 m (q) show NC gr 
 gsave  2268 2438 0 0 C 170.406 2143.19 t 90 r /Times-Bold findfont 104.865 sf 0 0 m (\(2) show NC gr 
 gsave  2268 2438 0 0 C 124.528 2103.86 t 90 r /Times-Bold findfont 72.095 sf 0 0 m (2) show NC gr 
 gsave  2268 2438 0 0 C 170.406 1972.78 t 90 r /Times-Bold findfont 104.865 sf 0 0 m (sin) show NC gr  373 341 m -56 X s 345 412 m -28 X s 345 482 m -28 X s 345 553 m -28 X s 345 623 m -28 X s 373 694 m -56 X s 345 765 m -28 X s 345 835 m -28 X s 345
 906 m -28 X s 345 976 m -28 X s 373 1047 m -56 X s 345 1117 m -28 X s 345 1188 m -28 X s 345 1258 m -28 X s 345 1329 m -28 X s 373 1399 m -56 X s 345 1470 m -28 X s 345 1540 m -28 X s 345 1611 m -28 X s 345 1681 m -28 X s 373 1752 m -56 X s 345 1822
 m -28 X s 345 1893 m -28 X s 345 1964 m -28 X s 345 2034 m -28 X s 373 2105 m -56 X s 373 2105 m -56 X s 345 2175 m -28 X s 345 2246 m -28 X s
 gsave  2268 2438 0 0 C 262.164 321.151 t 0 r /Helvetica findfont 72.095 sf 0 0 m (0) show NC gr 
 gsave  2268 2438 0 0 C 203.177 668.518 t 0 r /Helvetica findfont 72.095 sf 0 0 m (0.1) show NC gr 
 gsave  2268 2438 0 0 C 203.177 1022.44 t 0 r /Helvetica findfont 72.095 sf 0 0 m (0.2) show NC gr 
 gsave  2268 2438 0 0 C 203.177 1376.36 t 0 r /Helvetica findfont 72.095 sf 0 0 m (0.3) show NC gr 
 gsave  2268 2438 0 0 C 203.177 1730.28 t 0 r /Helvetica findfont 72.095 sf 0 0 m (0.4) show NC gr 
 gsave  2268 2438 0 0 C 203.177 2084.2 t 0 r /Helvetica findfont 72.095 sf 0 0 m (0.5) show NC gr  6 lw 413 364 m 345 91 d 172 52 d 153 35 d 115 33 d 95 25 d 96 26 d 77 24 d 76 21 d 77 20 d 76 18 d 58 17 d 76 16 d 77 18 d 38 16 d 57 14 d 58 17 d s 1
 0 0 c black 1 0 0 c 413 401 m 345 216 d 172 113 d 153 85 d 115 72 d 95 65 d 96 59 d 77 52 d 76 50 d 77 48 d 76 42 d 58 43 d 76 40 d 77 40 d 38 35 d 57 35 d 58 35 d s 0 1 0 c black 0 1 0 c 413 443 m 345 364 d 172 184 d 153 144 d 115 120 d 95 106 d 96
 97 d 77 87 d 76 85 d 77 78 d 76 73 d 58 69 d 76 68 d 77 62 d 38 64 d 57 57 d 58 60 d s black
 gsave  2268 2438 0 0 C 471.895 2156.3 t 0 r /Helvetica findfont 104.865 sf 0 0 m (ms90) show NC gr  1 0 0 c black 1 0 0 c
 gsave  2268 2438 0 0 C 471.895 2038.32 t 0 r /Helvetica findfont 104.865 sf 0 0 m (ms3s) show NC gr  black 0 1 0 c black 0 1 0 c
 gsave  2268 2438 0 0 C 471.895 1913.8 t 0 r /Helvetica findfont 104.865 sf 0 0 m (ms5s) show NC gr 
 gr  gr showpage
end
%%EOF
