%!PS-Adobe-2.0 EPSF-2.0
%%BoundingBox:  0 0 567 384
%%Title: /data/nc_sens_files/sensitivitycoords/ms90_sinvsEU_near_17_p.eps: c1
%%Creator: ROOT Version 5.34/20
%%CreationDate: Tue Oct 14 18:33:20 2014
%%EndComments
%%BeginProlog
80 dict begin
/s {stroke} def /l {lineto} def /m {moveto} def /t {translate} def
/r {rotate} def /rl {roll}  def /R {repeat} def
/d {rlineto} def /rm {rmoveto} def /gr {grestore} def /f {eofill} def
/c {setrgbcolor} def /black {0 setgray} def /sd {setdash} def
/cl {closepath} def /sf {scalefont setfont} def /lw {setlinewidth} def
/box {m dup 0 exch d exch 0 d 0 exch neg d cl} def
/NC{systemdict begin initclip end}def/C{NC box clip newpath}def
/bl {box s} def /bf {box f} def /Y { 0 exch d} def /X { 0 d} def 
/K {{pop pop 0 moveto} exch kshow} bind def
/ita {/ang 15 def gsave [1 0 ang dup sin exch cos div 1 0 0] concat} def 
/mp {newpath /y exch def /x exch def} def
/side {[w .77 mul w .23 mul] .385 w mul sd w 0 l currentpoint t -144 r} def
/mr {mp x y w2 0 360 arc} def /m24 {mr s} def /m20 {mr f} def
/mb {mp x y w2 add m w2 neg 0 d 0 w neg d w 0 d 0 w d cl} def
/mt {mp x y w2 add m w2 neg w neg d w 0 d cl} def
/m21 {mb f} def /m25 {mb s} def /m22 {mt f} def /m26{mt s} def
/m23 {mp x y w2 sub m w2 w d w neg 0 d cl f} def
/m27 {mp x y w2 add m w3 neg w2 neg d w3 w2 neg d w3 w2 d cl s} def
/m28 {mp x w2 sub y w2 sub w3 add m w3 0 d  0 w3 neg d w3 0 d 0 w3 d w3 0 d  0 w3 d w3 neg 0 d 0 w3 d w3 neg 0 d 0 w3 neg d w3 neg 0 d cl s } def
/m29 {mp gsave x w2 sub y w2 add w3 sub m currentpoint t 4 {side} repeat cl fill gr} def
/m30 {mp gsave x w2 sub y w2 add w3 sub m currentpoint t 4 {side} repeat cl s gr} def
/m31 {mp x y w2 sub m 0 w d x w2 sub y m w 0 d x w2 sub y w2 add m w w neg d x w2 sub y w2 sub m w w d s} def
/m32 {mp x y w2 sub m w2 w d w neg 0 d cl s} def
/m33 {mp x y w2 add m w3 neg w2 neg d w3 w2 neg d w3 w2 d cl f} def
/m34 {mp x w2 sub y w2 sub w3 add m w3 0 d  0 w3 neg d w3 0 d 0 w3 d w3 0 d  0 w3 d w3 neg 0 d 0 w3 d w3 neg 0 d 0 w3 neg d w3 neg 0 d cl f } def
/m2 {mp x y w2 sub m 0 w d x w2 sub y m w 0 d s} def
/m5 {mp x w2 sub y w2 sub m w w d x w2 sub y w2 add m w w neg d s} def
/reEncode {exch findfont dup length dict begin {1 index /FID eq  {pop pop} {def} ifelse } forall /Encoding exch def currentdict end dup /FontName get exch definefont pop } def [/Times-Bold /Times-Italic /Times-BoldItalic /Helvetica /Helvetica-Oblique
 /Helvetica-Bold /Helvetica-BoldOblique /Courier /Courier-Oblique /Courier-Bold /Courier-BoldOblique /Times-Roman /AvantGarde-Book /AvantGarde-BookOblique /AvantGarde-Demi /AvantGarde-DemiOblique /Bookman-Demi /Bookman-DemiItalic /Bookman-Light
 /Bookman-LightItalic /Helvetica-Narrow /Helvetica-Narrow-Bold /Helvetica-Narrow-BoldOblique /Helvetica-Narrow-Oblique /NewCenturySchlbk-Roman /NewCenturySchlbk-Bold /NewCenturySchlbk-BoldItalic /NewCenturySchlbk-Italic /Palatino-Bold
 /Palatino-BoldItalic /Palatino-Italic /Palatino-Roman ] {ISOLatin1Encoding reEncode } forall
%%EndProlog
%%BeginSetup
%%EndSetup
newpath  gsave  .25 .25 scale  gsave  0 0 t black[  ] 0 sd 3 lw 1 1 1 c 2268 1538 0 0 bf black 1 1 1 c 1814 1230 227 154 bf black 1814 1230 227 154 bl 227 154 m 1814 X s[ 4 8] 0 sd 227 1384 m -1230 Y s 460 1384 m -1230 Y s 693 1384 m -1230 Y s 926
 1384 m -1230 Y s 1159 1384 m -1230 Y s 1393 1384 m -1230 Y s 1626 1384 m -1230 Y s 1859 1384 m -1230 Y s 1859 1384 m -1230 Y s[  ] 0 sd 227 154 m 1230 Y s[ 4 8] 0 sd 2041 154 m -1814 X s 2041 324 m -1814 X s 2041 494 m -1814 X s 2041 664 m -1814 X s
 2041 834 m -1814 X s 2041 1004 m -1814 X s 2041 1174 m -1814 X s 2041 1344 m -1814 X s 2041 1344 m -1814 X s[  ] 0 sd 227 154 m 1814 X s
 gsave  2268 1538 0 0 C 869.943 55.3896 t 0 r /Helvetica findfont 48.8732 sf 0 0 m (Event Uncertainty \(1/64\)) show NC gr  227 191 m -37 Y s 285 172 m -18 Y s 343 172 m -18 Y s 402 172 m -18 Y s 460 191 m -37 Y s 518 172 m -18 Y s 576 172 m -18 Y s
 635 172 m -18 Y s 693 191 m -37 Y s 751 172 m -18 Y s 810 172 m -18 Y s 868 172 m -18 Y s 926 191 m -37 Y s 984 172 m -18 Y s 1043 172 m -18 Y s 1101 172 m -18 Y s 1159 191 m -37 Y s 1218 172 m -18 Y s 1276 172 m -18 Y s 1334 172 m -18 Y s 1393 191
 m -37 Y s 1451 172 m -18 Y s 1509 172 m -18 Y s 1567 172 m -18 Y s 1626 191 m -37 Y s 1684 172 m -18 Y s 1742 172 m -18 Y s 1801 172 m -18 Y s 1859 191 m -37 Y s 1859 191 m -37 Y s 1917 172 m -18 Y s 1975 172 m -18 Y s 2034 172 m -18 Y s
 gsave  2268 1538 0 0 C 211.784 104.263 t 0 r /Helvetica findfont 48.8732 sf 0 0 m (0) show NC gr 
 gsave  2268 1538 0 0 C 423.568 104.263 t 0 r /Helvetica findfont 48.8732 sf 0 0 m (0.2) show NC gr 
 gsave  2268 1538 0 0 C 654.901 104.263 t 0 r /Helvetica findfont 48.8732 sf 0 0 m (0.4) show NC gr 
 gsave  2268 1538 0 0 C 889.492 104.263 t 0 r /Helvetica findfont 48.8732 sf 0 0 m (0.6) show NC gr 
 gsave  2268 1538 0 0 C 1120.83 104.263 t 0 r /Helvetica findfont 48.8732 sf 0 0 m (0.8) show NC gr 
 gsave  2268 1538 0 0 C 1378.22 104.263 t 0 r /Helvetica findfont 48.8732 sf 0 0 m (1) show NC gr 
 gsave  2268 1538 0 0 C 1586.75 104.263 t 0 r /Helvetica findfont 48.8732 sf 0 0 m (1.2) show NC gr 
 gsave  2268 1538 0 0 C 1821.34 104.263 t 0 r /Helvetica findfont 48.8732 sf 0 0 m (1.4) show NC gr  227 154 m 1230 Y s
 gsave  2268 1538 0 0 C 114.037 840.619 t 90 r /Helvetica findfont 48.8732 sf 0 0 m (\)) show NC gr 
 gsave  2268 1538 0 0 C 114.037 814.553 t 90 r /Symbol findfont 48.8732 sf 0 0 m (q) show NC gr 
 gsave  2268 1538 0 0 C 114.037 772.197 t 90 r /Helvetica findfont 48.8732 sf 0 0 m (\(2) show NC gr 
 gsave  2268 1538 0 0 C 94.4882 752.647 t 90 r /Helvetica findfont 32.5821 sf 0 0 m (2) show NC gr 
 gsave  2268 1538 0 0 C 114.037 684.225 t 90 r /Helvetica findfont 48.8732 sf 0 0 m (Sin) show NC gr  281 154 m -54 X s 254 196 m -27 X s 254 239 m -27 X s 254 281 m -27 X s 281 324 m -54 X s 254 366 m -27 X s 254 409 m -27 X s 254 451 m -27 X s 281
 494 m -54 X s 254 536 m -27 X s 254 579 m -27 X s 254 621 m -27 X s 281 664 m -54 X s 254 706 m -27 X s 254 749 m -27 X s 254 791 m -27 X s 281 834 m -54 X s 254 876 m -27 X s 254 919 m -27 X s 254 961 m -27 X s 281 1004 m -54 X s 254 1046 m -27 X s
 254 1089 m -27 X s 254 1131 m -27 X s 281 1174 m -54 X s 254 1216 m -27 X s 254 1259 m -27 X s 254 1301 m -27 X s 281 1344 m -54 X s 281 1344 m -54 X s
 gsave  2268 1538 0 0 C 188.976 136.845 t 0 r /Helvetica findfont 48.8732 sf 0 0 m (0) show NC gr 
 gsave  2268 1538 0 0 C 120.554 306.272 t 0 r /Helvetica findfont 48.8732 sf 0 0 m (0.02) show NC gr 
 gsave  2268 1538 0 0 C 120.554 475.699 t 0 r /Helvetica findfont 48.8732 sf 0 0 m (0.04) show NC gr 
 gsave  2268 1538 0 0 C 120.554 645.126 t 0 r /Helvetica findfont 48.8732 sf 0 0 m (0.06) show NC gr 
 gsave  2268 1538 0 0 C 120.554 814.553 t 0 r /Helvetica findfont 48.8732 sf 0 0 m (0.08) show NC gr 
 gsave  2268 1538 0 0 C 146.62 987.239 t 0 r /Helvetica findfont 48.8732 sf 0 0 m (0.1) show NC gr 
 gsave  2268 1538 0 0 C 120.554 1156.67 t 0 r /Helvetica findfont 48.8732 sf 0 0 m (0.12) show NC gr 
 gsave  2268 1538 0 0 C 120.554 1326.09 t 0 r /Helvetica findfont 48.8732 sf 0 0 m (0.14) show NC gr  1884 1277 m -54 -41 d -55 -35 d -36 -38 d -73 -44 d -73 -38 d -55 -41 d -73 -44 d -72 -47 d -73 -52 d -73 -56 d -91 -65 d -91 -58 d -110 -82 d -145
 -84 d -164 -125 d -328 -219 d s /w 26 def /w2 {w 2 div} def /w3 {w 3 div} def 1884 1277 1830 1236 1775 1201 1739 1163 1666 1119 1593 1081 1538 1040 1465 996 1393 949 1320 897 1247 841 1156 776 1065 718 955 636 810 552 646 427 318 208 17 { m31} R
 gr  gr showpage
end
%%EOF
