%!PS-Adobe-2.0 EPSF-2.0
%%BoundingBox:  0 0 567 610
%%Title: /data/nc_sens_files/NC_sens_ms0.eps: c1
%%Creator: ROOT Version 5.34/20
%%CreationDate: Thu Oct  9 14:31:28 2014
%%EndComments
%%BeginProlog
80 dict begin
/s {stroke} def /l {lineto} def /m {moveto} def /t {translate} def
/r {rotate} def /rl {roll}  def /R {repeat} def
/d {rlineto} def /rm {rmoveto} def /gr {grestore} def /f {eofill} def
/c {setrgbcolor} def /black {0 setgray} def /sd {setdash} def
/cl {closepath} def /sf {scalefont setfont} def /lw {setlinewidth} def
/box {m dup 0 exch d exch 0 d 0 exch neg d cl} def
/NC{systemdict begin initclip end}def/C{NC box clip newpath}def
/bl {box s} def /bf {box f} def /Y { 0 exch d} def /X { 0 d} def 
/K {{pop pop 0 moveto} exch kshow} bind def
/ita {/ang 15 def gsave [1 0 ang dup sin exch cos div 1 0 0] concat} def 
/mp {newpath /y exch def /x exch def} def
/side {[w .77 mul w .23 mul] .385 w mul sd w 0 l currentpoint t -144 r} def
/mr {mp x y w2 0 360 arc} def /m24 {mr s} def /m20 {mr f} def
/mb {mp x y w2 add m w2 neg 0 d 0 w neg d w 0 d 0 w d cl} def
/mt {mp x y w2 add m w2 neg w neg d w 0 d cl} def
/m21 {mb f} def /m25 {mb s} def /m22 {mt f} def /m26{mt s} def
/m23 {mp x y w2 sub m w2 w d w neg 0 d cl f} def
/m27 {mp x y w2 add m w3 neg w2 neg d w3 w2 neg d w3 w2 d cl s} def
/m28 {mp x w2 sub y w2 sub w3 add m w3 0 d  0 w3 neg d w3 0 d 0 w3 d w3 0 d  0 w3 d w3 neg 0 d 0 w3 d w3 neg 0 d 0 w3 neg d w3 neg 0 d cl s } def
/m29 {mp gsave x w2 sub y w2 add w3 sub m currentpoint t 4 {side} repeat cl fill gr} def
/m30 {mp gsave x w2 sub y w2 add w3 sub m currentpoint t 4 {side} repeat cl s gr} def
/m31 {mp x y w2 sub m 0 w d x w2 sub y m w 0 d x w2 sub y w2 add m w w neg d x w2 sub y w2 sub m w w d s} def
/m32 {mp x y w2 sub m w2 w d w neg 0 d cl s} def
/m33 {mp x y w2 add m w3 neg w2 neg d w3 w2 neg d w3 w2 d cl f} def
/m34 {mp x w2 sub y w2 sub w3 add m w3 0 d  0 w3 neg d w3 0 d 0 w3 d w3 0 d  0 w3 d w3 neg 0 d 0 w3 d w3 neg 0 d 0 w3 neg d w3 neg 0 d cl f } def
/m2 {mp x y w2 sub m 0 w d x w2 sub y m w 0 d s} def
/m5 {mp x w2 sub y w2 sub m w w d x w2 sub y w2 add m w w neg d s} def
/reEncode {exch findfont dup length dict begin {1 index /FID eq  {pop pop} {def} ifelse } forall /Encoding exch def currentdict end dup /FontName get exch definefont pop } def [/Times-Bold /Times-Italic /Times-BoldItalic /Helvetica /Helvetica-Oblique
 /Helvetica-Bold /Helvetica-BoldOblique /Courier /Courier-Oblique /Courier-Bold /Courier-BoldOblique /Times-Roman /AvantGarde-Book /AvantGarde-BookOblique /AvantGarde-Demi /AvantGarde-DemiOblique /Bookman-Demi /Bookman-DemiItalic /Bookman-Light
 /Bookman-LightItalic /Helvetica-Narrow /Helvetica-Narrow-Bold /Helvetica-Narrow-BoldOblique /Helvetica-Narrow-Oblique /NewCenturySchlbk-Roman /NewCenturySchlbk-Bold /NewCenturySchlbk-BoldItalic /NewCenturySchlbk-Italic /Palatino-Bold
 /Palatino-BoldItalic /Palatino-Italic /Palatino-Roman ] {ISOLatin1Encoding reEncode } forall
%%EndProlog
%%BeginSetup
%%EndSetup
newpath  gsave  .25 .25 scale  gsave  0 0 t black[  ] 0 sd 3 lw 1 1 1 c 2268 2438 0 0 bf black 1 1 1 c 1837 1975 317 341 bf black 1837 1975 317 341 bl 317 341 m 1837 X s[ 4 8] 0 sd 354 2316 m -1975 Y s 430 2316 m -1975 Y s 492 2316 m -1975 Y s 545
 2316 m -1975 Y s 591 2316 m -1975 Y s 631 2316 m -1975 Y s 667 2316 m -1975 Y s 905 2316 m -1975 Y s 1043 2316 m -1975 Y s 1142 2316 m -1975 Y s 1218 2316 m -1975 Y s 1281 2316 m -1975 Y s 1334 2316 m -1975 Y s 1379 2316 m -1975 Y s 1420 2316 m
 -1975 Y s 1456 2316 m -1975 Y s 1693 2316 m -1975 Y s 1832 2316 m -1975 Y s 1930 2316 m -1975 Y s 2007 2316 m -1975 Y s 2069 2316 m -1975 Y s 2122 2316 m -1975 Y s[  ] 0 sd 317 341 m 1975 Y s[ 4 8] 0 sd 2154 363 m -1837 X s 2154 847 m -1837 X s 2154
 1330 m -1837 X s 2154 1813 m -1837 X s 2154 2296 m -1837 X s[  ] 0 sd 317 341 m 1837 X s
 gsave  2268 2438 0 0 C 2116.97 91.7573 t 0 r /Times-Bold findfont 104.865 sf 0 0 m (\)) show NC gr 
 gsave  2268 2438 0 0 C 2084.2 45.8787 t 0 r /Times-Bold findfont 72.095 sf 0 0 m (s) show NC gr 
 gsave  2268 2438 0 0 C 2044.88 45.8787 t 0 r /Symbol findfont 72.095 sf 0 0 m (m) show NC gr 
 gsave  2268 2438 0 0 C 1985.89 91.7573 t 0 r /Symbol findfont 104.865 sf 0 0 m (q) show NC gr 
 gsave  2268 2438 0 0 C 1900.69 91.7573 t 0 r /Times-Bold findfont 104.865 sf 0 0 m (\(2) show NC gr 
 gsave  2268 2438 0 0 C 1861.36 137.636 t 0 r /Times-Bold findfont 72.095 sf 0 0 m (2) show NC gr 
 gsave  2268 2438 0 0 C 1730.28 91.7573 t 0 r /Times-Bold findfont 104.865 sf 0 0 m (sin) show NC gr  354 371 m -30 Y s 430 371 m -30 Y s 492 371 m -30 Y s 545 371 m -30 Y s 591 371 m -30 Y s 631 371 m -30 Y s 667 401 m -60 Y s
 gsave  2268 2438 0 0 C 675.072 268.718 t 0 r /Helvetica findfont 52.4327 sf 0 0 m (\2552) show NC gr 
 gsave  2268 2438 0 0 C 596.423 235.947 t 0 r /Helvetica findfont 72.095 sf 0 0 m (10) show NC gr  905 371 m -30 Y s 1043 371 m -30 Y s 1142 371 m -30 Y s 1218 371 m -30 Y s 1281 371 m -30 Y s 1334 371 m -30 Y s 1379 371 m -30 Y s 1420 371 m -30 Y s
 1456 401 m -60 Y s
 gsave  2268 2438 0 0 C 1468.12 268.718 t 0 r /Helvetica findfont 52.4327 sf 0 0 m (\2551) show NC gr 
 gsave  2268 2438 0 0 C 1389.47 235.947 t 0 r /Helvetica findfont 72.095 sf 0 0 m (10) show NC gr  1693 371 m -30 Y s 1832 371 m -30 Y s 1930 371 m -30 Y s 2007 371 m -30 Y s 2069 371 m -30 Y s 2122 371 m -30 Y s 317 341 m 1975 Y s
 gsave  2268 2438 0 0 C 98.3114 2287.38 t 90 r /Times-Bold findfont 104.865 sf 0 0 m (\)) show NC gr 
 gsave  2268 2438 0 0 C 52.4328 2248.05 t 90 r /Times-Bold findfont 72.095 sf 0 0 m (2) show NC gr 
 gsave  2268 2438 0 0 C 98.3114 2064.54 t 90 r /Times-Bold findfont 104.865 sf 0 0 m ( \(eV) show NC gr 
 gsave  2268 2438 0 0 C 52.4328 2025.21 t 90 r /Times-Bold findfont 72.095 sf 0 0 m (2) show NC gr 
 gsave  2268 2438 0 0 C 98.3114 1933.46 t 90 r /Times-Bold findfont 104.865 sf 0 0 m (m) show NC gr 
 gsave  2268 2438 0 0 C 98.3114 1867.92 t 90 r /Symbol findfont 104.865 sf 0 0 m (D) show NC gr  345 341 m -28 X s 373 363 m -56 X s
 gsave  2268 2438 0 0 C 249.056 360.475 t 0 r /Helvetica findfont 52.4327 sf 0 0 m (\2552) show NC gr 
 gsave  2268 2438 0 0 C 170.406 334.259 t 0 r /Helvetica findfont 72.095 sf 0 0 m (10) show NC gr  345 509 m -28 X s 345 594 m -28 X s 345 654 m -28 X s 345 701 m -28 X s 345 739 m -28 X s 345 772 m -28 X s 345 800 m -28 X s 345 825 m -28 X s 373 847
 m -56 X s
 gsave  2268 2438 0 0 C 249.056 845.478 t 0 r /Helvetica findfont 52.4327 sf 0 0 m (\2551) show NC gr 
 gsave  2268 2438 0 0 C 170.406 819.262 t 0 r /Helvetica findfont 72.095 sf 0 0 m (10) show NC gr  345 992 m -28 X s 345 1077 m -28 X s 345 1138 m -28 X s 345 1184 m -28 X s 345 1223 m -28 X s 345 1255 m -28 X s 345 1283 m -28 X s 345 1308 m -28 X s
 373 1330 m -56 X s
 gsave  2268 2438 0 0 C 299.792 1298.37 t 0 r  -40 0 t /Helvetica findfont 72.095 sf 0 0 m (1) show NC gr  345 1475 m -28 X s 345 1560 m -28 X s 345 1621 m -28 X s 345 1668 m -28 X s 345 1706 m -28 X s 345 1738 m -28 X s 345 1766 m -28 X s 345 1791 m
 -28 X s 373 1813 m -56 X s
 gsave  2268 2438 0 0 C 299.792 1781.57 t 0 r  -82 0 t /Helvetica findfont 72.095 sf 0 0 m (10) show NC gr  345 1958 m -28 X s 345 2044 m -28 X s 345 2104 m -28 X s 345 2151 m -28 X s 345 2189 m -28 X s 345 2221 m -28 X s 345 2249 m -28 X s 345 2274
 m -28 X s 373 2296 m -56 X s
 gsave  2268 2438 0 0 C 262.164 2293.93 t 0 r /Helvetica findfont 52.4327 sf 0 0 m (2) show NC gr 
 gsave  2268 2438 0 0 C 183.515 2267.72 t 0 r /Helvetica findfont 72.095 sf 0 0 m (10) show NC gr  /w 2 def /w2 {w 2 div} def /w3 {w 3 div} def 354 363 2122 2296 2 { m20} R 6 lw 2145 363 m 716 Y -16 19 d -61 19 d -62 20 d -60 19 d -61 19 d -60 20 d
 -59 19 d -58 19 d -58 20 d -57 19 d -57 19 d -53 20 d -50 19 d -52 19 d -47 19 d -45 20 d -46 19 d -40 19 d -31 20 d -34 19 d -23 19 d -11 20 d -7 19 d -8 19 d 15 20 d 19 Y 34 19 d 34 20 d 61 19 d 59 19 d 97 20 d 125 19 d 157 19 d 201 20 d 177 19 d
 -35 19 d -99 20 d -86 19 d -87 19 d -95 20 d -86 19 d -55 19 d -31 20 d 19 Y 35 19 d 59 20 d 85 19 d 117 19 d 110 20 d 106 19 d 29 19 d -3 20 d -10 19 d 8 19 d 8 20 d -6 19 d -9 19 d -1 20 d 5 19 d -6 19 d 12 20 d 4 19 d 19 Y s 0.35 0.33 0.85 c
 black 0.35 0.33 0.85 c 2145 363 m 812 Y -28 20 d -59 19 d -59 19 d -58 20 d -56 19 d -55 19 d -55 20 d -51 19 d -50 19 d -48 19 d -44 20 d -42 19 d -39 19 d -32 20 d -31 19 d -23 19 d -15 20 d -11 19 d 19 Y 1 20 d 21 19 d 23 19 d 41 20 d 51 19 d 71
 19 d 93 20 d 119 19 d 157 19 d 179 20 d 58 Y -26 19 d -86 19 d -95 20 d -85 19 d -55 19 d -31 20 d 19 Y 35 19 d 59 20 d 86 19 d 116 19 d 82 20 d 270 Y s[ 12 12] 0 sd black 0.35 0.33 0.85 c 2145 363 m 870 Y -29 20 d -56 19 d -55 19 d -54 20 d -52 19
 d -50 19 d -48 19 d -44 20 d -42 19 d -36 19 d -34 20 d -28 19 d -24 19 d -17 20 d -9 19 d -2 19 d 4 20 d 17 19 d 24 19 d 40 20 d 52 19 d 70 19 d 93 20 d 121 19 d 155 19 d 4 20 d 96 Y -32 20 d -84 19 d -55 19 d -32 20 d 1 19 d 34 19 d 59 20 d 86 19
 d 23 19 d 290 Y s black
 gsave  2268 2438 0 0 C 471.895 2077.65 t 0 r /Helvetica findfont 104.865 sf 0 0 m (LAr\255ND 2.2E20POT) show NC gr 
 gsave  2268 2438 0 0 C 471.895 1920.35 t 0 r /Helvetica findfont 104.865 sf 0 0 m (uB 6.6E20POT) show NC gr 
 gsave  2268 2438 0 0 C 471.895 1756.5 t 0 r /Helvetica findfont 104.865 sf 0 0 m (Neutrino mode) show NC gr 
 gsave  2268 2438 0 0 C 622.639 858.586 t 0 r /Helvetica findfont 104.865 sf 0 0 m (90% CL) show NC gr [  ] 0 sd 479 894 m 119 X s
 gsave  2268 2438 0 0 C 747.167 701.288 t 0 r /Helvetica findfont 104.865 sf 0 0 m ( CL) show NC gr 
 gsave  2268 2438 0 0 C 681.626 701.288 t 0 r /Symbol findfont 104.865 sf 0 0 m (s) show NC gr 
 gsave  2268 2438 0 0 C 622.639 701.288 t 0 r /Helvetica findfont 104.865 sf 0 0 m (3) show NC gr  0.35 0.33 0.85 c 479 731 m 119 X s black
 gsave  2268 2438 0 0 C 747.167 537.436 t 0 r /Helvetica findfont 104.865 sf 0 0 m ( CL) show NC gr 
 gsave  2268 2438 0 0 C 681.626 537.436 t 0 r /Symbol findfont 104.865 sf 0 0 m (s) show NC gr 
 gsave  2268 2438 0 0 C 622.639 537.436 t 0 r /Helvetica findfont 104.865 sf 0 0 m (5) show NC gr  0.35 0.33 0.85 c[ 12 12] 0 sd 479 569 m 119 X s
 gr  gr showpage
end
%%EOF
