%!PS-Adobe-2.0 EPSF-2.0
%%BoundingBox:  0 0 567 610
%%Title: /data/nc_sens_files/NC_sens_ss0.eps: c2
%%Creator: ROOT Version 5.34/20
%%CreationDate: Thu Oct  9 14:31:33 2014
%%EndComments
%%BeginProlog
80 dict begin
/s {stroke} def /l {lineto} def /m {moveto} def /t {translate} def
/r {rotate} def /rl {roll}  def /R {repeat} def
/d {rlineto} def /rm {rmoveto} def /gr {grestore} def /f {eofill} def
/c {setrgbcolor} def /black {0 setgray} def /sd {setdash} def
/cl {closepath} def /sf {scalefont setfont} def /lw {setlinewidth} def
/box {m dup 0 exch d exch 0 d 0 exch neg d cl} def
/NC{systemdict begin initclip end}def/C{NC box clip newpath}def
/bl {box s} def /bf {box f} def /Y { 0 exch d} def /X { 0 d} def 
/K {{pop pop 0 moveto} exch kshow} bind def
/ita {/ang 15 def gsave [1 0 ang dup sin exch cos div 1 0 0] concat} def 
/mp {newpath /y exch def /x exch def} def
/side {[w .77 mul w .23 mul] .385 w mul sd w 0 l currentpoint t -144 r} def
/mr {mp x y w2 0 360 arc} def /m24 {mr s} def /m20 {mr f} def
/mb {mp x y w2 add m w2 neg 0 d 0 w neg d w 0 d 0 w d cl} def
/mt {mp x y w2 add m w2 neg w neg d w 0 d cl} def
/m21 {mb f} def /m25 {mb s} def /m22 {mt f} def /m26{mt s} def
/m23 {mp x y w2 sub m w2 w d w neg 0 d cl f} def
/m27 {mp x y w2 add m w3 neg w2 neg d w3 w2 neg d w3 w2 d cl s} def
/m28 {mp x w2 sub y w2 sub w3 add m w3 0 d  0 w3 neg d w3 0 d 0 w3 d w3 0 d  0 w3 d w3 neg 0 d 0 w3 d w3 neg 0 d 0 w3 neg d w3 neg 0 d cl s } def
/m29 {mp gsave x w2 sub y w2 add w3 sub m currentpoint t 4 {side} repeat cl fill gr} def
/m30 {mp gsave x w2 sub y w2 add w3 sub m currentpoint t 4 {side} repeat cl s gr} def
/m31 {mp x y w2 sub m 0 w d x w2 sub y m w 0 d x w2 sub y w2 add m w w neg d x w2 sub y w2 sub m w w d s} def
/m32 {mp x y w2 sub m w2 w d w neg 0 d cl s} def
/m33 {mp x y w2 add m w3 neg w2 neg d w3 w2 neg d w3 w2 d cl f} def
/m34 {mp x w2 sub y w2 sub w3 add m w3 0 d  0 w3 neg d w3 0 d 0 w3 d w3 0 d  0 w3 d w3 neg 0 d 0 w3 d w3 neg 0 d 0 w3 neg d w3 neg 0 d cl f } def
/m2 {mp x y w2 sub m 0 w d x w2 sub y m w 0 d s} def
/m5 {mp x w2 sub y w2 sub m w w d x w2 sub y w2 add m w w neg d s} def
/reEncode {exch findfont dup length dict begin {1 index /FID eq  {pop pop} {def} ifelse } forall /Encoding exch def currentdict end dup /FontName get exch definefont pop } def [/Times-Bold /Times-Italic /Times-BoldItalic /Helvetica /Helvetica-Oblique
 /Helvetica-Bold /Helvetica-BoldOblique /Courier /Courier-Oblique /Courier-Bold /Courier-BoldOblique /Times-Roman /AvantGarde-Book /AvantGarde-BookOblique /AvantGarde-Demi /AvantGarde-DemiOblique /Bookman-Demi /Bookman-DemiItalic /Bookman-Light
 /Bookman-LightItalic /Helvetica-Narrow /Helvetica-Narrow-Bold /Helvetica-Narrow-BoldOblique /Helvetica-Narrow-Oblique /NewCenturySchlbk-Roman /NewCenturySchlbk-Bold /NewCenturySchlbk-BoldItalic /NewCenturySchlbk-Italic /Palatino-Bold
 /Palatino-BoldItalic /Palatino-Italic /Palatino-Roman ] {ISOLatin1Encoding reEncode } forall
%%EndProlog
%%BeginSetup
%%EndSetup
newpath  gsave  .25 .25 scale  gsave  0 0 t black[  ] 0 sd 3 lw 1 1 1 c 2268 2438 0 0 bf black 1 1 1 c 1837 1975 317 341 bf black 1837 1975 317 341 bl 317 341 m 1837 X s[ 4 8] 0 sd 471 2316 m -1975 Y s 777 2316 m -1975 Y s 1083 2316 m -1975 Y s 1389
 2316 m -1975 Y s 1695 2316 m -1975 Y s 2001 2316 m -1975 Y s 471 2316 m -1975 Y s 2001 2316 m -1975 Y s[  ] 0 sd 317 341 m 1975 Y s[ 4 8] 0 sd 2154 363 m -1837 X s 2154 847 m -1837 X s 2154 1330 m -1837 X s 2154 1813 m -1837 X s 2154 2296 m -1837 X
 s[  ] 0 sd 317 341 m 1837 X s
 gsave  2268 2438 0 0 C 2116.97 85.2032 t 0 r /Times-Bold findfont 104.865 sf 0 0 m (\)) show NC gr 
 gsave  2268 2438 0 0 C 2057.99 39.3246 t 0 r /Times-Bold findfont 72.095 sf 0 0 m (ss) show NC gr 
 gsave  2268 2438 0 0 C 1999 85.2032 t 0 r /Symbol findfont 104.865 sf 0 0 m (q) show NC gr 
 gsave  2268 2438 0 0 C 1913.8 85.2032 t 0 r /Times-Bold findfont 104.865 sf 0 0 m (\(2) show NC gr 
 gsave  2268 2438 0 0 C 1874.47 131.082 t 0 r /Times-Bold findfont 72.095 sf 0 0 m (2) show NC gr 
 gsave  2268 2438 0 0 C 1743.39 85.2032 t 0 r /Times-Bold findfont 104.865 sf 0 0 m (sin) show NC gr  471 401 m -60 Y s 532 371 m -30 Y s 593 371 m -30 Y s 654 371 m -30 Y s 715 371 m -30 Y s 777 401 m -60 Y s 838 371 m -30 Y s 899 371 m -30 Y s 960
 371 m -30 Y s 1022 371 m -30 Y s 1083 401 m -60 Y s 1144 371 m -30 Y s 1205 371 m -30 Y s 1267 371 m -30 Y s 1328 371 m -30 Y s 1389 401 m -60 Y s 1450 371 m -30 Y s 1511 371 m -30 Y s 1573 371 m -30 Y s 1634 371 m -30 Y s 1695 401 m -60 Y s 1756
 371 m -30 Y s 1818 371 m -30 Y s 1879 371 m -30 Y s 1940 371 m -30 Y s 2001 401 m -60 Y s 471 401 m -60 Y s 409 371 m -30 Y s 348 371 m -30 Y s 2001 401 m -60 Y s 2062 371 m -30 Y s 2124 371 m -30 Y s
 gsave  2268 2438 0 0 C 412.908 262.164 t 0 r /Helvetica findfont 72.095 sf 0 0 m (0.4) show NC gr 
 gsave  2268 2438 0 0 C 720.95 262.164 t 0 r /Helvetica findfont 72.095 sf 0 0 m (0.5) show NC gr 
 gsave  2268 2438 0 0 C 1028.99 262.164 t 0 r /Helvetica findfont 72.095 sf 0 0 m (0.6) show NC gr 
 gsave  2268 2438 0 0 C 1330.48 262.164 t 0 r /Helvetica findfont 72.095 sf 0 0 m (0.7) show NC gr 
 gsave  2268 2438 0 0 C 1638.52 262.164 t 0 r /Helvetica findfont 72.095 sf 0 0 m (0.8) show NC gr 
 gsave  2268 2438 0 0 C 1946.57 262.164 t 0 r /Helvetica findfont 72.095 sf 0 0 m (0.9) show NC gr  317 341 m 1975 Y s
 gsave  2268 2438 0 0 C 98.3114 2287.38 t 90 r /Times-Bold findfont 104.865 sf 0 0 m (\)) show NC gr 
 gsave  2268 2438 0 0 C 52.4328 2248.05 t 90 r /Times-Bold findfont 72.095 sf 0 0 m (2) show NC gr 
 gsave  2268 2438 0 0 C 98.3114 2064.54 t 90 r /Times-Bold findfont 104.865 sf 0 0 m ( \(eV) show NC gr 
 gsave  2268 2438 0 0 C 52.4328 2025.21 t 90 r /Times-Bold findfont 72.095 sf 0 0 m (2) show NC gr 
 gsave  2268 2438 0 0 C 98.3114 1933.46 t 90 r /Times-Bold findfont 104.865 sf 0 0 m (m) show NC gr 
 gsave  2268 2438 0 0 C 98.3114 1867.92 t 90 r /Symbol findfont 104.865 sf 0 0 m (D) show NC gr  345 341 m -28 X s 373 363 m -56 X s
 gsave  2268 2438 0 0 C 249.056 360.475 t 0 r /Helvetica findfont 52.4327 sf 0 0 m (\2552) show NC gr 
 gsave  2268 2438 0 0 C 170.406 334.259 t 0 r /Helvetica findfont 72.095 sf 0 0 m (10) show NC gr  345 509 m -28 X s 345 594 m -28 X s 345 654 m -28 X s 345 701 m -28 X s 345 739 m -28 X s 345 772 m -28 X s 345 800 m -28 X s 345 825 m -28 X s 373 847
 m -56 X s
 gsave  2268 2438 0 0 C 249.056 845.478 t 0 r /Helvetica findfont 52.4327 sf 0 0 m (\2551) show NC gr 
 gsave  2268 2438 0 0 C 170.406 819.262 t 0 r /Helvetica findfont 72.095 sf 0 0 m (10) show NC gr  345 992 m -28 X s 345 1077 m -28 X s 345 1138 m -28 X s 345 1184 m -28 X s 345 1223 m -28 X s 345 1255 m -28 X s 345 1283 m -28 X s 345 1308 m -28 X s
 373 1330 m -56 X s
 gsave  2268 2438 0 0 C 299.792 1298.37 t 0 r  -40 0 t /Helvetica findfont 72.095 sf 0 0 m (1) show NC gr  345 1475 m -28 X s 345 1560 m -28 X s 345 1621 m -28 X s 345 1668 m -28 X s 345 1706 m -28 X s 345 1738 m -28 X s 345 1766 m -28 X s 345 1791 m
 -28 X s 373 1813 m -56 X s
 gsave  2268 2438 0 0 C 299.792 1781.57 t 0 r  -82 0 t /Helvetica findfont 72.095 sf 0 0 m (10) show NC gr  345 1958 m -28 X s 345 2044 m -28 X s 345 2104 m -28 X s 345 2151 m -28 X s 345 2189 m -28 X s 345 2221 m -28 X s 345 2249 m -28 X s 345 2274
 m -28 X s 373 2296 m -56 X s
 gsave  2268 2438 0 0 C 262.164 2293.93 t 0 r /Helvetica findfont 52.4327 sf 0 0 m (2) show NC gr 
 gsave  2268 2438 0 0 C 183.515 2267.72 t 0 r /Helvetica findfont 72.095 sf 0 0 m (10) show NC gr  /w 2 def /w2 {w 2 div} def /w3 {w 3 div} def 471 363 2001 2296 2 { m20} R 6 lw 2154 1177 m -79 18 d s 2075 1195 m -69 19 d -71 19 d -58 20 d -56 19 d
 -43 19 d -31 20 d -29 19 d -27 19 d -17 19 d -17 20 d -15 19 d -14 19 d -7 20 d -7 19 d -6 19 d -6 20 d 77 Y 6 19 d 6 20 d 14 19 d 22 19 d 41 20 d 56 19 d 118 19 d 254 20 d 35 3 d s 2154 1802 m -68 11 d s 2086 1813 m -116 19 d -93 20 d -78 19 d -32
 19 d -30 20 d 10 19 d 20 19 d 32 20 d 78 19 d 117 19 d 157 20 d 3 X s 0.35 0.33 0.85 c black 0.35 0.33 0.85 c 2154 1274 m -68 17 d s 2086 1291 m -69 20 d -70 19 d -47 19 d -46 19 d -44 20 d -22 19 d -31 19 d -20 20 d -19 19 d -9 19 d -9 20 d 19 Y -9
 19 d 9 20 d 19 Y 18 19 d 19 20 d 30 19 d 54 19 d 79 20 d 141 19 d 113 10 d s 2154 1865 m -35 6 d s 2119 1871 m -78 19 d -35 20 d 19 Y 46 19 d 78 20 d 24 4 d s[ 12 12] 0 sd black 0.35 0.33 0.85 c 2154 1337 m -46 12 d s 2108 1349 m -67 19 d -47 20 d
 -59 19 d -35 19 d -35 20 d -22 19 d -22 19 d -11 20 d -11 19 d 39 Y 11 19 d 22 19 d 33 20 d 58 19 d 83 19 d 124 20 d 24 3 d s black
 gsave  2268 2438 0 0 C 471.895 2077.65 t 0 r /Helvetica findfont 104.865 sf 0 0 m (LAr\255ND 2.2E20POT) show NC gr 
 gsave  2268 2438 0 0 C 471.895 1920.35 t 0 r /Helvetica findfont 104.865 sf 0 0 m (uB 6.6E20POT) show NC gr 
 gsave  2268 2438 0 0 C 471.895 1756.5 t 0 r /Helvetica findfont 104.865 sf 0 0 m (Neutrino mode) show NC gr 
 gsave  2268 2438 0 0 C 622.639 858.586 t 0 r /Helvetica findfont 104.865 sf 0 0 m (90% CL) show NC gr [  ] 0 sd 479 894 m 119 X s
 gsave  2268 2438 0 0 C 747.167 701.288 t 0 r /Helvetica findfont 104.865 sf 0 0 m ( CL) show NC gr 
 gsave  2268 2438 0 0 C 681.626 701.288 t 0 r /Symbol findfont 104.865 sf 0 0 m (s) show NC gr 
 gsave  2268 2438 0 0 C 622.639 701.288 t 0 r /Helvetica findfont 104.865 sf 0 0 m (3) show NC gr  0.35 0.33 0.85 c 479 731 m 119 X s black
 gsave  2268 2438 0 0 C 747.167 537.436 t 0 r /Helvetica findfont 104.865 sf 0 0 m ( CL) show NC gr 
 gsave  2268 2438 0 0 C 681.626 537.436 t 0 r /Symbol findfont 104.865 sf 0 0 m (s) show NC gr 
 gsave  2268 2438 0 0 C 622.639 537.436 t 0 r /Helvetica findfont 104.865 sf 0 0 m (5) show NC gr  0.35 0.33 0.85 c[ 12 12] 0 sd 479 569 m 119 X s
 gr  gr showpage
end
%%EOF
