%!PS-Adobe-2.0 EPSF-2.0
%%BoundingBox:  0 0 567 613
%%Title: /home/augustus/mphys/work/root/POTWgtFar_ss3s.eps: c1
%%Creator: ROOT Version 5.34/21
%%CreationDate: Mon Oct 13 13:16:16 2014
%%EndComments
%%BeginProlog
80 dict begin
/s {stroke} def /l {lineto} def /m {moveto} def /t {translate} def
/r {rotate} def /rl {roll}  def /R {repeat} def
/d {rlineto} def /rm {rmoveto} def /gr {grestore} def /f {eofill} def
/c {setrgbcolor} def /black {0 setgray} def /sd {setdash} def
/cl {closepath} def /sf {scalefont setfont} def /lw {setlinewidth} def
/box {m dup 0 exch d exch 0 d 0 exch neg d cl} def
/NC{systemdict begin initclip end}def/C{NC box clip newpath}def
/bl {box s} def /bf {box f} def /Y { 0 exch d} def /X { 0 d} def 
/K {{pop pop 0 moveto} exch kshow} bind def
/ita {/ang 15 def gsave [1 0 ang dup sin exch cos div 1 0 0] concat} def 
/mp {newpath /y exch def /x exch def} def
/side {[w .77 mul w .23 mul] .385 w mul sd w 0 l currentpoint t -144 r} def
/mr {mp x y w2 0 360 arc} def /m24 {mr s} def /m20 {mr f} def
/mb {mp x y w2 add m w2 neg 0 d 0 w neg d w 0 d 0 w d cl} def
/mt {mp x y w2 add m w2 neg w neg d w 0 d cl} def
/m21 {mb f} def /m25 {mb s} def /m22 {mt f} def /m26{mt s} def
/m23 {mp x y w2 sub m w2 w d w neg 0 d cl f} def
/m27 {mp x y w2 add m w3 neg w2 neg d w3 w2 neg d w3 w2 d cl s} def
/m28 {mp x w2 sub y w2 sub w3 add m w3 0 d  0 w3 neg d w3 0 d 0 w3 d w3 0 d  0 w3 d w3 neg 0 d 0 w3 d w3 neg 0 d 0 w3 neg d w3 neg 0 d cl s } def
/m29 {mp gsave x w2 sub y w2 add w3 sub m currentpoint t 4 {side} repeat cl fill gr} def
/m30 {mp gsave x w2 sub y w2 add w3 sub m currentpoint t 4 {side} repeat cl s gr} def
/m31 {mp x y w2 sub m 0 w d x w2 sub y m w 0 d x w2 sub y w2 add m w w neg d x w2 sub y w2 sub m w w d s} def
/m32 {mp x y w2 sub m w2 w d w neg 0 d cl s} def
/m33 {mp x y w2 add m w3 neg w2 neg d w3 w2 neg d w3 w2 d cl f} def
/m34 {mp x w2 sub y w2 sub w3 add m w3 0 d  0 w3 neg d w3 0 d 0 w3 d w3 0 d  0 w3 d w3 neg 0 d 0 w3 d w3 neg 0 d 0 w3 neg d w3 neg 0 d cl f } def
/m2 {mp x y w2 sub m 0 w d x w2 sub y m w 0 d s} def
/m5 {mp x w2 sub y w2 sub m w w d x w2 sub y w2 add m w w neg d s} def
/reEncode {exch findfont dup length dict begin {1 index /FID eq  {pop pop} {def} ifelse } forall /Encoding exch def currentdict end dup /FontName get exch definefont pop } def [/Times-Bold /Times-Italic /Times-BoldItalic /Helvetica /Helvetica-Oblique
 /Helvetica-Bold /Helvetica-BoldOblique /Courier /Courier-Oblique /Courier-Bold /Courier-BoldOblique /Times-Roman /AvantGarde-Book /AvantGarde-BookOblique /AvantGarde-Demi /AvantGarde-DemiOblique /Bookman-Demi /Bookman-DemiItalic /Bookman-Light
 /Bookman-LightItalic /Helvetica-Narrow /Helvetica-Narrow-Bold /Helvetica-Narrow-BoldOblique /Helvetica-Narrow-Oblique /NewCenturySchlbk-Roman /NewCenturySchlbk-Bold /NewCenturySchlbk-BoldItalic /NewCenturySchlbk-Italic /Palatino-Bold
 /Palatino-BoldItalic /Palatino-Italic /Palatino-Roman ] {ISOLatin1Encoding reEncode } forall
%%EndProlog
%%BeginSetup
%%EndSetup
newpath  gsave  .25 .25 scale  gsave  0 0 t black[  ] 0 sd 3 lw 1 1 1 c 2268 2451 0 0 bf black 1 1 1 c 1837 1986 317 343 bf black 1837 1986 317 343 bl 317 343 m 1837 X s[ 4 8] 0 sd 503 2329 m -1986 Y s 1303 2329 m -1986 Y s 2019 2329 m -1986 Y s[  ]
 0 sd 317 343 m 1986 Y s[ 4 8] 0 sd 2154 366 m -1837 X s 2154 856 m -1837 X s 2154 1347 m -1837 X s 2154 1837 m -1837 X s 2154 2328 m -1837 X s[  ] 0 sd 317 343 m 1837 X s
 gsave  2268 2451 0 0 C 2116.97 117.974 t 0 r /Times-Bold findfont 104.865 sf 0 0 m (\)) show NC gr 
 gsave  2268 2451 0 0 C 2057.99 85.2032 t 0 r /Times-Bold findfont 72.095 sf 0 0 m (ss) show NC gr 
 gsave  2268 2451 0 0 C 2005.55 117.974 t 0 r /Symbol findfont 104.865 sf 0 0 m (q) show NC gr 
 gsave  2268 2451 0 0 C 1920.35 117.974 t 0 r /Times-Bold findfont 104.865 sf 0 0 m (\(2) show NC gr 
 gsave  2268 2451 0 0 C 1881.03 163.852 t 0 r /Times-Bold findfont 72.095 sf 0 0 m (2) show NC gr 
 gsave  2268 2451 0 0 C 1749.94 117.974 t 0 r /Times-Bold findfont 104.865 sf 0 0 m (sin) show NC gr  503 373 m -30 Y s 1303 373 m -30 Y s 2019 403 m -60 Y s
 gsave  2268 2451 0 0 C 2018.87 232.254 t 0 r  -20 0 t /Helvetica findfont 72.095 sf 0 0 m (1) show NC gr  317 343 m 1986 Y s
 gsave  2268 2451 0 0 C 176.961 2300.49 t 90 r /Times-Bold findfont 104.865 sf 0 0 m (\)) show NC gr 
 gsave  2268 2451 0 0 C 124.528 2267.72 t 90 r /Times-Bold findfont 72.095 sf 0 0 m (2) show NC gr 
 gsave  2268 2451 0 0 C 176.961 2077.65 t 90 r /Times-Bold findfont 104.865 sf 0 0 m ( \(eV) show NC gr 
 gsave  2268 2451 0 0 C 124.528 2044.88 t 90 r /Times-Bold findfont 72.095 sf 0 0 m (2) show NC gr 
 gsave  2268 2451 0 0 C 176.961 1946.57 t 90 r /Times-Bold findfont 104.865 sf 0 0 m (m) show NC gr 
 gsave  2268 2451 0 0 C 176.961 1881.03 t 90 r /Symbol findfont 104.865 sf 0 0 m (D) show NC gr  345 343 m -28 X s 373 366 m -56 X s
 gsave  2268 2451 0 0 C 249.056 360.475 t 0 r /Helvetica findfont 52.4327 sf 0 0 m (\2552) show NC gr 
 gsave  2268 2451 0 0 C 170.406 334.259 t 0 r /Helvetica findfont 72.095 sf 0 0 m (10) show NC gr  345 513 m -28 X s 345 600 m -28 X s 345 661 m -28 X s 345 709 m -28 X s 345 747 m -28 X s 345 780 m -28 X s 345 809 m -28 X s 345 834 m -28 X s 373 856
 m -56 X s
 gsave  2268 2451 0 0 C 255.61 852.032 t 0 r /Helvetica findfont 52.4327 sf 0 0 m (\2551) show NC gr 
 gsave  2268 2451 0 0 C 176.961 825.816 t 0 r /Helvetica findfont 72.095 sf 0 0 m (10) show NC gr  345 1004 m -28 X s 345 1090 m -28 X s 345 1152 m -28 X s 345 1199 m -28 X s 345 1238 m -28 X s 345 1271 m -28 X s 345 1299 m -28 X s 345 1324 m -28 X s
 373 1347 m -56 X s
 gsave  2268 2451 0 0 C 299.792 1315.35 t 0 r  -40 0 t /Helvetica findfont 72.095 sf 0 0 m (1) show NC gr  345 1494 m -28 X s 345 1581 m -28 X s 345 1642 m -28 X s 345 1690 m -28 X s 345 1729 m -28 X s 345 1761 m -28 X s 345 1790 m -28 X s 345 1815 m
 -28 X s 373 1837 m -56 X s
 gsave  2268 2451 0 0 C 299.792 1805.94 t 0 r  -82 0 t /Helvetica findfont 72.095 sf 0 0 m (10) show NC gr  345 1985 m -28 X s 345 2071 m -28 X s 345 2133 m -28 X s 345 2180 m -28 X s 345 2219 m -28 X s 345 2252 m -28 X s 345 2280 m -28 X s 345 2306
 m -28 X s 373 2328 m -56 X s
 gsave  2268 2451 0 0 C 262.164 2326.7 t 0 r /Helvetica findfont 52.4327 sf 0 0 m (2) show NC gr 
 gsave  2268 2451 0 0 C 183.515 2300.49 t 0 r /Helvetica findfont 72.095 sf 0 0 m (10) show NC gr  6 lw 2019 366 m 863 Y -6 20 d -143 19 d -184 20 d -177 20 d -166 19 d -175 20 d -119 19 d -119 20 d -116 20 d -57 19 d -84 20 d -54 20 d -53 19 d -25
 20 d -25 19 d 20 Y -25 20 d 25 19 d 20 Y 50 20 d 53 19 d 82 20 d 142 19 d 206 20 d 351 20 d 518 19 d 101 20 d 98 Y -149 20 d -282 19 d -188 20 d -86 20 d 19 Y 113 20 d 186 19 d 274 20 d 132 20 d 274 Y s 1 0 0 c black 1 0 0 c 2019 366 m 883 Y -101 19
 d -165 20 d -191 20 d -191 19 d -144 20 d -148 19 d -119 20 d -88 20 d -87 19 d -84 20 d -55 20 d -53 19 d -27 20 d -25 19 d -25 20 d 39 Y 25 20 d 52 20 d 53 19 d 82 20 d 144 19 d 236 20 d 347 20 d 514 19 d 50 20 d 98 Y -116 20 d -265 19 d -183 20 d
 -112 20 d 19 Y 112 20 d 207 19 d 270 20 d 87 20 d 274 Y s 0 1 0 c black 0 1 0 c 2019 366 m 883 Y -50 19 d -174 20 d -182 20 d -186 19 d -142 20 d -147 19 d -119 20 d -118 20 d -87 19 d -86 20 d -55 20 d -54 19 d -26 20 d -27 19 d -25 20 d 39 Y 25 20
 d 53 20 d 54 19 d 84 20 d 144 19 d 237 20 d 371 20 d 494 19 d 16 20 d 98 Y -74 20 d -259 19 d -177 20 d -109 20 d 19 Y 109 20 d 200 19 d 260 20 d 50 20 d 274 Y s 0 0 1 c black 0 0 1 c 2019 366 m 883 Y -11 19 d -138 20 d -184 20 d -177 19 d -166 20 d
 -146 19 d -148 20 d -89 20 d -117 19 d -58 20 d -84 20 d -28 19 d -54 20 d -26 19 d 20 Y -27 20 d 27 19 d 20 Y 53 20 d 55 19 d 113 20 d 146 19 d 237 20 d 391 20 d 431 19 d 118 Y -40 20 d -248 19 d -169 20 d -107 20 d 19 Y 107 20 d 191 19 d 243 20 d
 23 20 d 274 Y s 1 1 0 c black 1 1 0 c 2019 366 m 902 Y -74 20 d -170 20 d -187 19 d -188 20 d -144 19 d -148 20 d -89 20 d -118 19 d -87 20 d -57 20 d -56 19 d -28 20 d -27 19 d -27 20 d 39 Y 27 20 d 27 20 d 84 19 d 115 20 d 147 19 d 266 20 d 377 20
 d 357 19 d 118 Y -6 20 d -198 19 d -177 20 d -102 20 d 19 Y 102 20 d 196 19 d 184 20 d 1 20 d 274 Y s 1 0 1 c black 1 0 1 c 2019 366 m 902 Y -16 20 d -151 20 d -166 19 d -177 20 d -166 19 d -146 20 d -118 20 d -119 19 d -88 20 d -58 20 d -57 19 d
 -56 20 d -28 19 d 20 Y -27 20 d 27 19 d 28 20 d 27 20 d 86 19 d 116 20 d 178 19 d 263 20 d 404 20 d 244 19 d 138 Y -132 19 d -178 20 d -96 20 d 19 Y 118 20 d 172 19 d 116 20 d 294 Y s 0 1 1 c black 0 1 1 c 2019 366 m 922 Y -62 20 d -162 19 d -157 20
 d -183 19 d -141 20 d -146 20 d -119 19 d -89 20 d -59 20 d -58 19 d -58 20 d -28 19 d -29 20 d 39 Y 29 20 d 57 20 d 87 19 d 118 20 d 178 19 d 285 20 d 405 20 d 132 19 d 138 Y -62 19 d -142 20 d -106 20 d 19 Y 106 20 d 164 19 d 40 20 d 294 Y s 0.35
 0.83 0.33 c black 0.35 0.83 0.33 c 2019 366 m 942 Y -74 19 d -170 20 d -162 19 d -158 20 d -141 20 d -117 19 d -118 20 d -90 20 d -59 19 d -58 20 d -29 19 d -29 20 d 39 Y 29 20 d 58 20 d 88 19 d 149 20 d 205 19 d 295 20 d 358 20 d 23 19 d 138 Y -3
 19 d -98 20 d -84 20 d 19 Y 98 20 d 87 19 d 314 Y s 0.35 0.33 0.85 c black 0.35 0.33 0.85 c 2019 366 m 961 Y -40 20 d -145 19 d -148 20 d -150 20 d -136 19 d -115 20 d -117 20 d -60 19 d -59 20 d -60 19 d -29 20 d 20 Y 29 19 d 30 20 d 60 20 d 89 19
 d 175 20 d 219 19 d 308 20 d 149 20 d 176 Y -3 20 d -37 20 d 19 Y 40 20 d 333 Y s 0.67 0.65 0.75 c black 0.67 0.65 0.75 c 2019 366 m 1000 Y -6 20 d -95 20 d -143 19 d -113 20 d -126 20 d -81 19 d -84 20 d -57 19 d -29 20 d 39 Y 58 20 d 84 20 d 109
 19 d 195 20 d 214 19 d 74 20 d 608 Y s black
 gsave  2268 2451 0 0 C 471.895 2175.96 t 0 r /Helvetica findfont 104.865 sf 0 0 m (POTWgtFar 3s CL) show NC gr 
 gsave  2268 2451 0 0 C 471.895 2044.88 t 0 r /Helvetica findfont 104.865 sf 0 0 m (1.0) show NC gr  1 0 0 c black 1 0 0 c
 gsave  2268 2451 0 0 C 471.895 1926.9 t 0 r /Helvetica findfont 104.865 sf 0 0 m (0.9) show NC gr  black 0 1 0 c black 0 1 0 c
 gsave  2268 2451 0 0 C 471.895 1802.38 t 0 r /Helvetica findfont 104.865 sf 0 0 m (0.8) show NC gr  black 0 0 1 c black 0 0 1 c
 gsave  2268 2451 0 0 C 471.895 1677.85 t 0 r /Helvetica findfont 104.865 sf 0 0 m (0.7) show NC gr  black 1 1 0 c black 1 1 0 c
 gsave  2268 2451 0 0 C 471.895 1559.87 t 0 r /Helvetica findfont 104.865 sf 0 0 m (0.6) show NC gr  black 1 0 1 c black 1 0 1 c
 gsave  2268 2451 0 0 C 471.895 1435.35 t 0 r /Helvetica findfont 104.865 sf 0 0 m (0.5) show NC gr  black 0 1 1 c black 0 1 1 c
 gsave  2268 2451 0 0 C 471.895 1310.82 t 0 r /Helvetica findfont 104.865 sf 0 0 m (0.4) show NC gr  black 0.35 0.83 0.33 c black 0.35 0.83 0.33 c
 gsave  2268 2451 0 0 C 471.895 1186.29 t 0 r /Helvetica findfont 104.865 sf 0 0 m (0.3) show NC gr  black 0.35 0.33 0.85 c black 0.35 0.33 0.85 c
 gsave  2268 2451 0 0 C 471.895 1068.32 t 0 r /Helvetica findfont 104.865 sf 0 0 m (0.2) show NC gr  black 0.67 0.65 0.75 c black 0.67 0.65 0.75 c
 gsave  2268 2451 0 0 C 471.895 943.79 t 0 r /Helvetica findfont 104.865 sf 0 0 m (0.1) show NC gr 
 gr  gr showpage
end
%%EOF
