%!PS-Adobe-2.0 EPSF-2.0
%%BoundingBox:  0 0 567 610
%%Title: /data/nc_sens_files/ss5s_sinvspot_overlay_far.eps: c1
%%Creator: ROOT Version 5.34/20
%%CreationDate: Tue Oct 14 10:30:16 2014
%%EndComments
%%BeginProlog
80 dict begin
/s {stroke} def /l {lineto} def /m {moveto} def /t {translate} def
/r {rotate} def /rl {roll}  def /R {repeat} def
/d {rlineto} def /rm {rmoveto} def /gr {grestore} def /f {eofill} def
/c {setrgbcolor} def /black {0 setgray} def /sd {setdash} def
/cl {closepath} def /sf {scalefont setfont} def /lw {setlinewidth} def
/box {m dup 0 exch d exch 0 d 0 exch neg d cl} def
/NC{systemdict begin initclip end}def/C{NC box clip newpath}def
/bl {box s} def /bf {box f} def /Y { 0 exch d} def /X { 0 d} def 
/K {{pop pop 0 moveto} exch kshow} bind def
/ita {/ang 15 def gsave [1 0 ang dup sin exch cos div 1 0 0] concat} def 
/mp {newpath /y exch def /x exch def} def
/side {[w .77 mul w .23 mul] .385 w mul sd w 0 l currentpoint t -144 r} def
/mr {mp x y w2 0 360 arc} def /m24 {mr s} def /m20 {mr f} def
/mb {mp x y w2 add m w2 neg 0 d 0 w neg d w 0 d 0 w d cl} def
/mt {mp x y w2 add m w2 neg w neg d w 0 d cl} def
/m21 {mb f} def /m25 {mb s} def /m22 {mt f} def /m26{mt s} def
/m23 {mp x y w2 sub m w2 w d w neg 0 d cl f} def
/m27 {mp x y w2 add m w3 neg w2 neg d w3 w2 neg d w3 w2 d cl s} def
/m28 {mp x w2 sub y w2 sub w3 add m w3 0 d  0 w3 neg d w3 0 d 0 w3 d w3 0 d  0 w3 d w3 neg 0 d 0 w3 d w3 neg 0 d 0 w3 neg d w3 neg 0 d cl s } def
/m29 {mp gsave x w2 sub y w2 add w3 sub m currentpoint t 4 {side} repeat cl fill gr} def
/m30 {mp gsave x w2 sub y w2 add w3 sub m currentpoint t 4 {side} repeat cl s gr} def
/m31 {mp x y w2 sub m 0 w d x w2 sub y m w 0 d x w2 sub y w2 add m w w neg d x w2 sub y w2 sub m w w d s} def
/m32 {mp x y w2 sub m w2 w d w neg 0 d cl s} def
/m33 {mp x y w2 add m w3 neg w2 neg d w3 w2 neg d w3 w2 d cl f} def
/m34 {mp x w2 sub y w2 sub w3 add m w3 0 d  0 w3 neg d w3 0 d 0 w3 d w3 0 d  0 w3 d w3 neg 0 d 0 w3 d w3 neg 0 d 0 w3 neg d w3 neg 0 d cl f } def
/m2 {mp x y w2 sub m 0 w d x w2 sub y m w 0 d s} def
/m5 {mp x w2 sub y w2 sub m w w d x w2 sub y w2 add m w w neg d s} def
/reEncode {exch findfont dup length dict begin {1 index /FID eq  {pop pop} {def} ifelse } forall /Encoding exch def currentdict end dup /FontName get exch definefont pop } def [/Times-Bold /Times-Italic /Times-BoldItalic /Helvetica /Helvetica-Oblique
 /Helvetica-Bold /Helvetica-BoldOblique /Courier /Courier-Oblique /Courier-Bold /Courier-BoldOblique /Times-Roman /AvantGarde-Book /AvantGarde-BookOblique /AvantGarde-Demi /AvantGarde-DemiOblique /Bookman-Demi /Bookman-DemiItalic /Bookman-Light
 /Bookman-LightItalic /Helvetica-Narrow /Helvetica-Narrow-Bold /Helvetica-Narrow-BoldOblique /Helvetica-Narrow-Oblique /NewCenturySchlbk-Roman /NewCenturySchlbk-Bold /NewCenturySchlbk-BoldItalic /NewCenturySchlbk-Italic /Palatino-Bold
 /Palatino-BoldItalic /Palatino-Italic /Palatino-Roman ] {ISOLatin1Encoding reEncode } forall
%%EndProlog
%%BeginSetup
%%EndSetup
newpath  gsave  .25 .25 scale  gsave  0 0 t black[  ] 0 sd 3 lw 1 1 1 c 2268 2438 0 0 bf black 1 1 1 c 1837 1975 317 341 bf black 1837 1975 317 341 bl 317 341 m 1837 X s[ 4 8] 0 sd 317 2316 m -1975 Y s 501 2316 m -1975 Y s 685 2316 m -1975 Y s 869
 2316 m -1975 Y s 1052 2316 m -1975 Y s 1236 2316 m -1975 Y s 1420 2316 m -1975 Y s 1603 2316 m -1975 Y s 1787 2316 m -1975 Y s 1971 2316 m -1975 Y s 2154 2316 m -1975 Y s[  ] 0 sd 317 341 m 1975 Y s[ 4 8] 0 sd 2154 341 m -1837 X s 2154 529 m -1837 X
 s 2154 718 m -1837 X s 2154 906 m -1837 X s 2154 1094 m -1837 X s 2154 1282 m -1837 X s 2154 1470 m -1837 X s 2154 1658 m -1837 X s 2154 1846 m -1837 X s 2154 2034 m -1837 X s 2154 2222 m -1837 X s 2154 2222 m -1837 X s[  ] 0 sd 317 341 m 1837 X s
 gsave  2268 2438 0 0 C 1468.12 111.42 t 0 r /Times-Bold findfont 104.865 sf 0 0 m 
 632 579 532 479 453 400 347 241 215 147 64
(POT %*6.6e20) K NC gr  317 401 m -60 Y s 354 371 m -30 Y s 391 371 m -30 Y s 428 371 m -30 Y s 464 371 m -30 Y s 501 401 m -60 Y s 538 371 m -30 Y s 575 371 m -30 Y s 611 371 m -30 Y s 648 371 m -30 Y s 685 401 m -60 Y s 722 371 m -30 Y s 758 371 m
 -30 Y s 795 371 m -30 Y s 832 371 m -30 Y s 869 401 m -60 Y s 905 371 m -30 Y s 942 371 m -30 Y s 979 371 m -30 Y s 1015 371 m -30 Y s 1052 401 m -60 Y s 1089 371 m -30 Y s 1126 371 m -30 Y s 1162 371 m -30 Y s 1199 371 m -30 Y s 1236 401 m -60 Y s
 1273 371 m -30 Y s 1309 371 m -30 Y s 1346 371 m -30 Y s 1383 371 m -30 Y s 1420 401 m -60 Y s 1456 371 m -30 Y s 1493 371 m -30 Y s 1530 371 m -30 Y s 1567 371 m -30 Y s 1603 401 m -60 Y s 1640 371 m -30 Y s 1677 371 m -30 Y s 1713 371 m -30 Y s
 1750 371 m -30 Y s 1787 401 m -60 Y s 1824 371 m -30 Y s 1860 371 m -30 Y s 1897 371 m -30 Y s 1934 371 m -30 Y s 1971 401 m -60 Y s 2007 371 m -30 Y s 2044 371 m -30 Y s 2081 371 m -30 Y s 2118 371 m -30 Y s 2154 401 m -60 Y s
 gsave  2268 2438 0 0 C 294.934 262.164 t 0 r /Helvetica findfont 72.095 sf 0 0 m (0) show NC gr 
 gsave  2268 2438 0 0 C 445.678 262.164 t 0 r /Helvetica findfont 72.095 sf 0 0 m (0.1) show NC gr 
 gsave  2268 2438 0 0 C 629.193 262.164 t 0 r /Helvetica findfont 72.095 sf 0 0 m (0.2) show NC gr 
 gsave  2268 2438 0 0 C 812.708 262.164 t 0 r /Helvetica findfont 72.095 sf 0 0 m (0.3) show NC gr 
 gsave  2268 2438 0 0 C 996.222 262.164 t 0 r /Helvetica findfont 72.095 sf 0 0 m (0.4) show NC gr 
 gsave  2268 2438 0 0 C 1179.74 262.164 t 0 r /Helvetica findfont 72.095 sf 0 0 m (0.5) show NC gr 
 gsave  2268 2438 0 0 C 1363.25 262.164 t 0 r /Helvetica findfont 72.095 sf 0 0 m (0.6) show NC gr 
 gsave  2268 2438 0 0 C 1546.77 262.164 t 0 r /Helvetica findfont 72.095 sf 0 0 m (0.7) show NC gr 
 gsave  2268 2438 0 0 C 1730.28 262.164 t 0 r /Helvetica findfont 72.095 sf 0 0 m (0.8) show NC gr 
 gsave  2268 2438 0 0 C 1913.8 262.164 t 0 r /Helvetica findfont 72.095 sf 0 0 m (0.9) show NC gr 
 gsave  2268 2438 0 0 C 2130.08 262.164 t 0 r /Helvetica findfont 72.095 sf 0 0 m (1) show NC gr  317 341 m 1975 Y s
 gsave  2268 2438 0 0 C 170.406 2287.38 t 90 r /Times-Bold findfont 104.865 sf 0 0 m (\)) show NC gr 
 gsave  2268 2438 0 0 C 170.406 2228.39 t 90 r /Symbol findfont 104.865 sf 0 0 m (q) show NC gr 
 gsave  2268 2438 0 0 C 170.406 2143.19 t 90 r /Times-Bold findfont 104.865 sf 0 0 m (\(2) show NC gr 
 gsave  2268 2438 0 0 C 124.528 2103.86 t 90 r /Times-Bold findfont 72.095 sf 0 0 m (2) show NC gr 
 gsave  2268 2438 0 0 C 170.406 1972.78 t 90 r /Times-Bold findfont 104.865 sf 0 0 m (sin) show NC gr  373 341 m -56 X s 345 388 m -28 X s 345 435 m -28 X s 345 482 m -28 X s 373 529 m -56 X s 345 576 m -28 X s 345 623 m -28 X s 345 670 m -28 X s 373
 718 m -56 X s 345 765 m -28 X s 345 812 m -28 X s 345 859 m -28 X s 373 906 m -56 X s 345 953 m -28 X s 345 1000 m -28 X s 345 1047 m -28 X s 373 1094 m -56 X s 345 1141 m -28 X s 345 1188 m -28 X s 345 1235 m -28 X s 373 1282 m -56 X s 345 1329 m
 -28 X s 345 1376 m -28 X s 345 1423 m -28 X s 373 1470 m -56 X s 345 1517 m -28 X s 345 1564 m -28 X s 345 1611 m -28 X s 373 1658 m -56 X s 345 1705 m -28 X s 345 1752 m -28 X s 345 1799 m -28 X s 373 1846 m -56 X s 345 1893 m -28 X s 345 1940 m
 -28 X s 345 1987 m -28 X s 373 2034 m -56 X s 345 2081 m -28 X s 345 2128 m -28 X s 345 2175 m -28 X s 373 2222 m -56 X s 373 2222 m -56 X s 345 2269 m -28 X s 345 2316 m -28 X s
 gsave  2268 2438 0 0 C 203.177 321.151 t 0 r /Helvetica findfont 72.095 sf 0 0 m (0.8) show NC gr 
 gsave  2268 2438 0 0 C 163.852 504.665 t 0 r /Helvetica findfont 72.095 sf 0 0 m (0.82) show NC gr 
 gsave  2268 2438 0 0 C 157.298 694.734 t 0 r /Helvetica findfont 72.095 sf 0 0 m (0.84) show NC gr 
 gsave  2268 2438 0 0 C 163.852 884.803 t 0 r /Helvetica findfont 72.095 sf 0 0 m (0.86) show NC gr 
 gsave  2268 2438 0 0 C 163.852 1068.32 t 0 r /Helvetica findfont 72.095 sf 0 0 m (0.88) show NC gr 
 gsave  2268 2438 0 0 C 203.177 1258.39 t 0 r /Helvetica findfont 72.095 sf 0 0 m (0.9) show NC gr 
 gsave  2268 2438 0 0 C 163.852 1448.45 t 0 r /Helvetica findfont 72.095 sf 0 0 m (0.92) show NC gr 
 gsave  2268 2438 0 0 C 157.298 1631.97 t 0 r /Helvetica findfont 72.095 sf 0 0 m (0.94) show NC gr 
 gsave  2268 2438 0 0 C 163.852 1822.04 t 0 r /Helvetica findfont 72.095 sf 0 0 m (0.96) show NC gr 
 gsave  2268 2438 0 0 C 163.852 2012.11 t 0 r /Helvetica findfont 72.095 sf 0 0 m (0.98) show NC gr 
 gsave  2268 2438 0 0 C 262.164 2195.62 t 0 r /Helvetica findfont 72.095 sf 0 0 m (1) show NC gr  6 lw 501 1438 m 184 -432 d 184 -211 d 183 -102 d 184 -98 d 184 -32 d 183 -62 d 184 -30 d 184 -30 d 183 -29 d s 1 0 0 c black 1 0 0 c 501 2222 m 184 -55
 d 184 -277 d 183 -181 d 184 -166 d 184 -140 d 183 -72 d 184 -72 d 184 -72 d 183 -73 d s 0 1 0 c black 0 1 0 c 501 2222 m 551 X 184 -1 d 184 -54 d 183 -84 d 184 -88 d 184 -78 d 183 -84 d s black
 gsave  2268 2438 0 0 C 471.895 2156.3 t 0 r /Helvetica findfont 104.865 sf 0 0 m (ss90) show NC gr  1 0 0 c black 1 0 0 c
 gsave  2268 2438 0 0 C 471.895 2038.32 t 0 r /Helvetica findfont 104.865 sf 0 0 m (ss3s) show NC gr  black 0 1 0 c black 0 1 0 c
 gsave  2268 2438 0 0 C 471.895 1913.8 t 0 r /Helvetica findfont 104.865 sf 0 0 m (ss5s) show NC gr 
 gr  gr showpage
end
%%EOF
